STO
MALE
:c
#rt
seguimi
segui
mi
ti
seguo
e
ti
faccio
una
domanda
..
mi
annoio
:c
#follow
#followme
x9

Crosetto
:
"
Monti
trovi
soluzioni
reali
"
:
#governo
#guido
crosetto
#mario
monti
ROMA
–
''
Occorre
permettere
a
que...
http://t.co/9ibXLgRf

Ho
appena
acquistato
Ballerina
Necklace
su
Stardoll
.
Dai
un'
occhiata
alla
a
la
mia
Suite
!
http://t.co/4izCbBod

Crisi
,
Fitch
:
tagli
più
severi
evitati
grazie
a
governo
Monti
:
New
York
,
27
gen
.
(
TMNews
)
?
"
Un'
azione
più
sever...
http://t.co/noUM2hJi

-
Mamma
domani
torno
.
Che
clima
c'
è
a
Roma
?
Fa
così
caldo
?
-
Mah
.
È
un
autunnello
primaveretta
caldino
caldino
Mia
madre
è
Ned
Flanders
?

Corsera
:
I
caroselli
e
i
fischi
in
piazza
hanno
guastato
l'
umore
a
B.
e
ai
a
i
suoi
che
induriscono
le
condizioni
per
dire
di
sì
al
a
il
governo
Monti

x:
Ti
sei
commosso
dopo
lo
show
vero
?
Harry
:
Sì
sono
molto
affezionato
all'
a
l'
Italia
*--*
http://t.co/5pO2PXK3

la
politica
sulla
su
la
crescita
del
di
il
governo
Monti
è
più
criptica
degli
di
gli
errori
di
Windows
sul
su
il
registro
eventi
.

Ho
letto
la
lista
dei
di
i
ministri
del
di
il
governo
Monti
e
parecchi
mi
sembrano
inadatti
al
a
il
ministero
che
gli
è
stato
dato
!

IL
GOVERNO
#MONTI
E
LA
#CENSURA
DEI
DI
I
#VIDEO
SULLA
SU
LA
#RIVOLUZIONE
DEI
DI
I
#FORCONI
.
http://t.co/ywdC04Wy

RT
@ehilapayne
:
QUANDO
CAPIRETE
CHE
NON
CREDERE
NELLA
IN
LA
ZERRIE
NON
CORRISPONDE
AD
ODIARE
PERRIE
O
INSULTARLA
INSULTAR
LA
ALL
DAY
ALL
NIGHT
?
MINCHIA
AVETE
…

Ferrero
(
PRC
)
propone
a
Vendola
(
SEL
)
unità
a
sinistra
contro
Governo
Monti
|
umbrialeft.it
http://t.co/NCBBMZB3

Se
nel
in
il
governo
Monti
entrano
anche
i
ministri
del
di
il
governo
Berlusconi
come
si
fa
ad
avvicinarsi
avvicinar
si
.
Quelli
hanno
rovinato
il
Paese
.
Non
si
può

@Jughernaut
si
anche
quello
,
ma
soprattutto
fammi
fam
mi
sapere
xD
cioè
non
è
un
trofeo
,
è
una
proposta
vera
e
propria
!
Ahahah
guarda
te
che
sogget

Italo
Bocchino
:
Se
il
governo
Monti
non
piace
alla
a
la
Lega
,
a
Di
Pietro
e
a
Sallusti
allora
significa
che
è
il
governo
che
serve
al
a
il
Paese
.

La
storia
,
le
luci
e
le
ombre
dei
di
i
neoministri
del
di
il
governo
#Monti
|
Diritto
di
critica
http://t.co/J7Iw2r2P
via
@ddcnews
#ministri

RT
@harrysbooks
:
“
@pottervato
:
se
ci
fosse
demi
direbbe
che
sono
un
mashup
tra
i
jonas
e
gli
one
direction
uscito
male
.
#xf7
”
È
VERO
AHAHAH
…

Ippica
sul
su
il
lastrico
:
cavalli
macellati
e
famiglie
legate
all'
a
l'
indotto
in
crisi
.
Le
prime
vittime
del
di
il
governo
Monti
.
http://t.co/UtCFqacR

pensavo
che
#lalettura
fosse
un
agguerrito
think
tank
della
di
la
cultura
neoliberista
e
invece
è
solo
una
ciofeca

e
poi
,
io
devo
ancora
guardarmi
guardar
mi
il
docu-film
sui
su
i
doors
narrato
da
Morgan
,
ma
non
ce
la
faccio
.
è
più
forte
di
me
.

@g79world
abiamo
cancellato
contatti
da
pc
.
li
ho
su
iphone
.
con
sincro
perdo
tutto
.
devo
importare
da
iphone
su
outlook
ma
non
ghe
la
fò
!

Twitter
:
Saviano
e
Grillo
tra
piu'
influenti
Italia
-
Photostory
Curiosità
-
ANSA.it
http://t.co/q3F2cqRP
via
@ansa_topnews

Maroni
:
"
Tifo
per
Cancellieri
o
Mosca
agli
a
gli
Interni
"
:
#anna
maria
cancellieri
#governo
#mario
monti
ROMA
,
15
NOV
...
http://t.co/BWtHaey2

Enrico
Mentana
:
«
Il
successo
(
possibile
)
di
#Grillo
è
un
effetto
,
non
una
causa
della
di
la
#crisi
dei
di
i
#partiti
»
http://t.co/TjRBsXML

Bersani
:
«
Governo
Monti
punti
al
a
il
cuore
degli
di
gli
italiani
»
.
Il
fegato
se
lo
sono
rovinati
col
con
il
governo
Berlusconi
.

Grillini
,
imparate
a
confrontarvi
confrontar
vi
con
gli
altri
,
non
insultate
.
#Grillo
non
vi
ha
insegnato
che
il
confronto
è
alla
a
la
base
della
di
la
democrazia
?

#Grillo
che
scappa
da
Bertazzoni
.
Sembra
più
una
burla
,
girando
attorno
al
a
il
camper
.
Paragonarlo
Paragonar
lo
a
tutti
gli
altri
è
troppo
http://t.co/REqlY32k

Fettucini
alla
a
la
Amatriciana
@
Ama
Ristorante
in
Atlantic
Highlands
,
NJ
.
Call
732-872-4674
!

POLITICA
.
#Panebianco
sul
su
il
CorSera
:
La
durata
e
la
stabilità
del
di
il
governo
Monti
non
hanno
nulla
a
che
fare
con
la
questione
del
di
il
#referendum
.

Si
all'
a
l'
Europa
no
all'
a
l'
EuroBANCA
!
No
a
Mario
Monti
#nomonti
@SurFilWave
@TullioApi
@GiorgiaUlgiati
@valesalomo
@VALERIA_GENOVA

@swaggiee_
mmmh
..
va
bene
frà
?
io
chiamo
tutti
così
(
es
.
monica
->
mò
)
#LOL

Manovra
governo
Monti
si
parla
di
tassa
sul
su
il
lusso
.
Una
tantum
sulle
su
le
sciarpe
oltre
i
50
centimentri
.
Vabbene
scaldarsi
scaldar
si
...

Cosa
ne
pensate
della
di
la
mia
nuova
"
icons
"
(
si
dice
così
?
)
su
twitter
??
Se
la
prendete
"
creditate
"
la
pagina
<3
http://t.co/SUfFXKdb

RT
@xxzaynslaughj
:
#rt
seguimi
segui
mi
e
ti
seguo
,
aumenti
tu
e
aumento
anch'
io
.
E
ti
voto
l'
icon
se
aggiungi
ai
a
i
preferiti
❤

Per
il
#M5S
è
presente
all'
a
l'
incontro
la
dott.ssa
Loredana
Mannina
,
assessore
della
di
la
giunta
Nuti
#elepa
#openPalermo
http://t.co/9bCDrhi4

@juanmjm
RIFORMA
:
una
delle
di
le
tante
che
i
partiti
hanno
imposto
(
ahahhha
)
al
a
il
Governo
Monti
.
#puttanate
#campacavallochelerbacresce

Si
all'
a
l'
Europa
no
all'
a
l'
EuroBANCA
!
No
a
Mario
Monti
#nomonti
@CristianAlicata
@CarloTramontano
@Diletta_Ale
@DianaFabrizi
@donzelli

RT
@MarcoPetrone4
:
Confcommercio
:
Stangata
per
le
imprese
con
la
nuova
tassa
sui
su
i
rifiuti
urbani
.
L'
aumento
medio
dei
di
i
costi
nel
in
il
2014
sarà
pa...

The
Italian
job
:
la
risposta
degli
di
gli
italiani
a
Mario
Monti
http://t.co/7ZHAdpZr
via
@addthis

@capatesuspigolo
@MicheleCatalano
a
Mattino5
il
vicedirettore
di
Chi
parla
della
di
la
copertina
con
Barbara
e
la
Fedenon
ha
proferito
parola
.

Post
Terremoto
in
Molise
:
gli
EcoDem
chiedono
risposte
concrete
da
Governo
Monti
:
LARINO
_
Per
l'
Associazione
Ec...
http://t.co/wYbeo0zX

#serviziopubblico
Grazie
a
#Renzi
e
#Grillo
sono
arrivato
al
a
il
record
di
ascolto
di
trasm
.
politiche
negli
in
gli
ultimi
tempi
...
ben
7
'
di
dialoghi
!

TT
Twitter
Italia
04:00
:
1
.
#cinemaInChiesa
2
.
#serviziopubblico
3
.
#Grillo
4
.
Trota
5
.
Levon
Helm
6
.
Prince
Of
Persia
7
.
Damon
and
Elena
8
.
Lega

Sondaggio
del
di
il
Messaggero.it
:
l'
80
%
dei
di
i
lettori
dice
sì
al
a
il
governo
Monti
http://t.co/aQbnn8jg

ELENA
UGOLINI
,
la
nuova
sottosegretaria
all'
a
l'
Istruzione
del
di
il
governo
Monti
,
è
di
CL
.
Ecco
cos'
è
COMUNIONE
E
LIBERAZIONE
:
http://t.co/AajchR32

#inonda
#Grillo
è
stato
il
detonatore
e
ci
ha
messo
la
faccia
,
il
#M5S
riempie
il
vuoto
della
di
la
politica
creato
dalla
da
la
malapolitica
dei
di
i
partiti

#Grillo
sarà
anche
l'
essenza
dell'
di
l'
antipolitica
,
ma
se
è
così
alto
nei
in
i
sondaggi
,
#Bersani
,
bisognerà
chiedersi
chieder
si
perché
!

@Eva_Starz
eheheh
grazie
qualcuno
é
passato
da
ste
parti
...
ed
ha
pensato
di
farci
far
ci
uno
scherzetto
....

Marcegaglia
:
Nella
In
la
manovra
c'
è
lo
sviluppo
,
ma
non
basta
:
#emma
marcegaglia
#Manovra
#mario
monti
ROMA
,
15
DIC...
http://t.co/NjPKeCRJ

vuoi
lavorare
come
social
innovator
per
il
governo
monti
?
invia
il
curriculum
al
a
il
ministro
profumo
http://t.co/eQ93fgp3
#avvisopubblico

imazzoli
La
manovra
del
di
il
governo
Monti
doveva
essre
più
equa
http://t.co/7jdza7cJ

@gbtondo
@laresadeitonti
Se
in
20
anni
si
fosse
fatto
qualcosa
non
avremmo
avuto
bisogno
della
di
la
manovrona
e
del
di
il
capro
espiatorio
Mario
Monti
.

Governo
:
Allen
Sinai
,
Monti
eccellente
,
priorita'
tagliare
spesa
:
Roma
,
11
nov
.
?
(
Adnkronos
)
?
Mario
Monti
sare...
http://t.co/ab1kqFsv

Maurizio
Landini
parla
a
La
crisi
.
In
mezz'
ora
di
ieri
sera
del
di
il
programma
del
di
il
governo
Monti
....
http://t.co/NyQ6wCXU

Mario
Monti
e
Barack
Obama
,
si
vedranno
per
la
prima
volta
il
9
febbraio
alla
a
la
Casa
Bianca
http://t.co/W5aCGvj2

Questo
non
è
un
paese
per
giovani
.
Avrei
voluto
che
la
prima
riforma
del
di
il
governo
#Monti
fosse
stata
quella
del
di
il
lavoro
,
non
delle
di
le
pensioni
.

@3tt0re
davvero
conosci
OJS
?
l'
uomo
del
di
il
mistero
si
infittisce
...
;)
mi
picchio
perche'
ricopro
tutti
i
ruoli
,
dal
da
il
manager
al
a
il
proof
:-D

Il
1
maggio
anzikè
la
festa
dei
di
i
lavoratori
propongo
la
festa
dei
di
i
disoccupati
#ditelavostra
#Grillo
in
#italia
tanto
nn
c'
è
+
ness
ke
lavora

ciao
a
tutti
e
tanti
AUGURI
a
MIKE
MANGINI
batterista
dei
di
i
DREAM
THEATER
..
49
anni
..
AUGURIIIIIIIII
..
http://t.co/w7n9G8ni

Si
all'
a
l'
Europa
no
all'
a
l'
EuroBANCA
!
No
a
Mario
Monti
#nomonti
@GTravagliati
@GianluigiVerta
@Giovane_Italia
@ilpdl
@LucaB_83
@LucCavaliere

il
bus
sa
di
profumo
di
A&F
Anchio
lo
metto
ma
non
così
tanto
!
È
tutto
di
ragazzino
piccolino
ma
con
profumo
e
profumo
addosso
!
Hahaha
:')

@paolo_sciamm90
lo
so
xké
è
stato
dopo
sanremo
..
:D
Cmq
sì
,
era
x
colpa
mia
lo
ammetto
..
Lei
ci
ha
trovati
a
letto
e
nn
ha
retto
il
colpo
u.u

RT
@iRasdellaFossa
:
#Mexes
e
#Kaka
nella
in
la
TOP
11
della
di
la
terza
giornata
della
di
la
#ChampionsLeague
.
#ForzaMilan
http://t.co/mRaHsikfb4

IL
GOVERNO
MONTI
E'
IL
COMPLETAMENTO
DELLA
DI
LA
CONTRO-RIVOLUZIONE
CLERICO
-
MASSONICA
INIZIATA
IL
'92
-
'93
.
http://t.co/0vd1Hn20

Nel
In
il
1986
viene
pubblicato
il
1°
video
singolo
della
di
la
storia
:
è
la
VHS
WhoWantsToLiveForever
/
AKindOfMagic
.
http://t.co/rawvrYDV27

La
bufala
della
di
la
tassa
sui
su
i
cani
del
di
il
Governo
Monti
http://t.co/ZPLViP34

"
Ti
amo
da
qui
...
Alla
A
la
fine
del
di
il
monfo
...
Di
nuovo
qui
all'
a
l'
infinito
"

Che
uno
poi
vorrebbe
pure
darlo
dar
lo
un
rigore
al
a
il
Milan
ma
se
negli
in
gli
ultimi
20
minuti
entri
in
area
della
di
la
Lazio
mezza
volta
diventa
impossibile
.

Apple
aumenta
gli
ordini
per
l'
iPhone
5s
del
di
il
75
%
,
riducendo
quelli
per
il
5c
del
di
il
35
%
http://t.co/UTXAgv8iNS

Ho
appena
usato
#Shazam
per
taggare
Come
Home
di
OneRepublic
.
http://t.co/acMiuUoaK5

Conto
alla
a
la
rovescia
per
Barça
-
MilanAl
Nou
Camp
4
mila
tifosi
rossoneri
:
La
sfida
con
i
blaugrana
vale
la
semif...
http://t.co/x9411RZ6

Chi
ha
più
stile
?
Formigoni
o
Mario
Monti
?
Scopri
i
commenti
del
di
il
governatore
della
di
la
Lombardia
su
abbigliamento
e
...
http://t.co/jWwyoOy2

@Iabicus
:
È
evidente
che
Calderoli
gestisce
il
personal
branding
di
Mario
Monti
.

Google
art
project
,
l'
arte
online
dai
da
i
Musei
più
importanti
del
di
il
mondo
-
Corriere
Roma
http://t.co/A9oxQvFj

se
trovo
la
maschera
di
Mario
Monti
prevedo
che
prenderà
il
posto
di
silvio
nei
in
i
miei
video
D:
che
dispiacere
ma
lo
devo
fare
U_U

@rapportocarelli
Ministro
#Barca
Il
governo
#monti
ha
come
priorità
rilanciare
la
scuola
al
a
il
sud
e
avviare
infrastrutture
al
a
il
piu
presto

RT
@keradirectioner
:
ODDIOO
I
RAGAZZI
HANNO
#RT
IL
MIO
VIDEOOOO
ODDIO
STO
MALE
SCLERO
CAZZOOO
MERDAAAA

@peo_Nba
@teobianchi13
pure
io
Uffa
domani
sono
di
mattina
,
sveglia
alle
a
le
5
..
San
My
SKY
Dovrò
resistere
alla
a
la
tentazione
di
guardare
il
finale

Ebbene
si
,
Mario
Monti
ha
detto
che
Bill
Gates
ha
cominciato
in
un
garage
,...
Ma
non
era
Steve
Jobs
?
http://t.co/65Vk8psC
via
@repubblicait

loumakesmehappy
il
nick
@
è
troppo
lungo
ma
mi
piace
comunque
(
?
)
il
profilo
è
bellissimo
e
la
bio
è
molto
dolce
:)

Delizioso
il
pezzo
di
#Bechis
sui
su
i
sondaggi
governativi
di
#Floris
:
Quale
é
la
cosa
che
ti
piace
di
più
e
quale
meno
del
di
il
governo
Monti
?

@inlukesarms
faccio
la
metereologa
HAHHA
lo
sai
?
uu

il
governo
Monti
aumenta
le
tasse
,
la
BCE
taglia
i
tassi
per
dare
una
mano
alle
a
le
banche
,
ma
ai
a
i
cittadini
chi
ci
pensa
?

Ferrero
:
BERLUSCONI
CI
HA
PORTATO
SULL'
SU
L'
ORLO
DEL
DI
IL
BARATRO
,
COL
CON
IL
GOVERNO
MONTI
PER
FARE
UN
PASSO
IN
AVANTI
!
.
Ormai
...
http://t.co/pulwWJvy

La
mo-rosa-
preferisco
chiamarla
chiamar
la
semplicemente
"
amica
"
da
una
"
morosa
"
non
puoi
certo
aspettarti
aspettar
ti
un
anticipo
!
(
umore
10
)

@snarl62
puo'
anche
nn
piacere
o
nn
concord.
ma
#Grillo
ha
un
suo
programma
,
ABC
parlano
,
parlano
ma
poi
permet.
a
questo
Governo
l'
iniquita'

Spunti
vari
e
disordinati
sulle
su
le
conseguenze
del
di
il
governo
Monti
abr
:
http://t.co/Mlr62uSQ

I
giorni
della
di
la
merla
serviranno
agli
a
gli
italiani
per
salutare
per
sempre
quelli
della
di
la
passera
.
(
Mario
Monti
)

Governo
Monti
:
stò
sospeso
fra
gioia
per
il
crollo
del
di
il
regime
e
rabbia
per
l'
invasione
della
di
la
BCE
.
E'
il
25
aprile
della
di
la
nostra
generazione
.

Il
premier
italiano
Mario
Monti
incontrerà
i
leader
dei
di
i
sindacati
Cgil
,
Cisl
e
Uil
a
Palazzo
Chigi
alle
a
le
ore
20
:
http://t.co/Y7d99dEF

Il
Monti
-
pensiero
sui
su
i
sacrifici
imposti
dalla
da
la
manovra
:
"
Gli
italiani
stanno
capendo
"
:
Il
premier
Mario
Monti
ogg...
http://t.co/vlkQK9N9

Devi
renderti
render
ti
conto
che
alcune
persone
possono
far
parte
del
di
il
tuo
cuore
,
ma
non
della
di
la
tua
vita
;)

Rocco
Siffredi
é
arrivato
secondo
agli
a
gli
Oscar
del
di
il
porno
x
essersi
esser
si
fatto
più
donne
di
tutti
ma
Mario
Monti
é
arrivato
1mo
x
essersi
esser
si
in..
tutti

RT
@fattoquotidiano
:
#Grillo
e
il
teatrino
della
di
la
politica
.
Quanto
ci
piace
-
Dal
Da
il
blog
di
Fabrizio
Tonello
http://t.co/rKX0keqb

Ma
ora
che
tutti
diranno
bravo
al
a
il
Governo
Monti
,
rimango
l'
unico
contro
,
dove
le
trovo
le
info
?
AAA
cercasi
cerca
si
aiuto
Barbaro
Sognatore
#PdN

@AronMarzetti
Ciao
Aron
...
hai
anche
delle
fans
21enni
eh
:P

Linkiesta
LIVE
Famiglia
Cristiana
online
:
Governo
,
ripartire
da
Mario
Monti
,
l'
unico
che
può
tirarci
tirar
ci
fuori
dalla
da
la
palude

TT
ITALIA
21:48
1
.
#Grillo
2
.
#primoLibro
3
.
#serviziopubblico
4
.
Prince
Of
Persia
5
.
Franca
Rame
6
.
Renzi
7
.
Partito
della
di
la
Nazione

Mario
Monti
ci
ha
riservato
l'
ennesima
sorpresa
a
favore
degli
di
gli
istituti
di
credito
(
tra
tracciabilità
dei
di
i
...
http://t.co/UeA0OHCx

Governo
#Monti
,
si
parla
di
Buttiglione
al
a
il
ministero
dell'
di
l'
Istruzione
e
di
riconferma
di
La
Russa
alla
a
la
Difesa
(
Fonte
Piazza
Pulita
La7
)

Sto
notando
che
Lady
Gaga
invece
di
fare
video
musicali
,
fa
proprio
dei
di
i
film
!
hahahahahahahah
giusto
per
farmi
far
mi
passare
un
po
d'
ansia
:SSSSS
!

Tanti
auguri
al
a
il
nuovo
Capo
del
di
il
Governo
Mario
Monti
,
grossa
responsabilità
non
vorrei
essere
nei
in
i
suoi
panni
,
e
....
spriamo
bene
#doposilvio

@Roxy_Loves_1D
weee
rox
,
tutto
bene
tu
?
:)
aw
ti
voglio
tanto
bene
anche
io
.
<3

La
manovra
varata
dal
da
il
governo
Monti
arriverà
in
aula
alla
a
la
Camera
mercoledì
alle
a
le
10
.
L'
esame
del
di
il
provvedimento
...
http://t.co/uLeQstL2

Peluffo
al
a
il
posto
di
Malinconico
,
Olivi
nuova
portavoce
.
Restyling
nel
in
il
governo
#Monti
:
http://t.co/pwItU30e

"
Facciamo
cambiare
strada
all'
a
l'
Italia
"
Gli
appelli
dei
di
i
vip
per
#Salvaiciclisti
-
Repubblica.it
http://t.co/MSy5MR97
via
@repubblicait

RT
@LeChi3lline
:
Confronti
ufficiali
tra
Juve
e
Fiorentina
:
164
Vittorie
Juve
:
74
Pareggi
:
54
Vittorie
Fiorentina
:
36
Gol
Juve
:
278
Gol
Fio…

@iPiro78
ti
dice
di
collegarlo
collegar
lo
alla
a
la
rete
wireless
?

Il
decreto
Petrolini
.
Le
domande
al
a
il
governo
#Monti
sulla
su
la
#manovra
da
parte
di
un
pungente
#Gramellini
http://t.co/Of9QKM5F

@LiaCeli
da
Spinoza
:
Mario
Monti
è
conosciuto
dal
da
il
60
%
degli
di
gli
intervistati
.
Che
però
preferiscono
chiamarlo
chiamar
lo
gamberi
e
zucchine
.
serena
gandhi

@LiaCeli
:
Maroni
:
«
Monti
?
Sì
,
ma
con
Lega
fuori
dal
da
il
governo
»
.
Monti
:
«
Governo
?
Sì
,
ma
con
Lega
fuori
dai
da
i
Maroni
»
.

#Grillo
è
diverso
perché
scende
in
mezzo
alla
a
la
gente
.
Non
si
é
mai
visto
un
capopolo
da
salotto
...

Oggi
Minsk
,
#Bielorussia
,
ospita
il
vertice
dei
di
i
ministri
degli
di
gli
esteri
della
di
la
Comunità
degli
di
gli
Stati
Indipendenti
-
...
http://t.co/KsDKtoc8ol

BERTONE
:
SACRIFICI
PARTE
DELLA
DI
LA
VITA
.
Commentando
la
manovra
finanziaria
del
di
il
governo
Monti
,
il
Segretario
di
Stato
Vaticano
,
ha
dichiarato
:

Berlusconi
ha
capito
che
il
governo
Monti
è
l'
ancora
di
salvezza
per
l'
Italia
,
nonostante
le
volgarità
del
di
il
qualunquista
Bossi
.
Merito
al
a
il
Cav.
!

http://t.co/MXOON3vY
ihihihi
vai
col
con
il
Governo
Monti
,
ministro
all'
a
l'
economia
Laura
Pausini
(
come
sono
bravo
a
usare
i
#TT
mammamà
...
)

RT
@tomlinsoff98
:
niall
è
perfetto
biondo
,
niall
è
perfetto
castano
.
niall
è
sempre
prefetto
http://t.co/TlqDroX9qM

Avvincente
la
nomina
dei
di
i
sottosegretari
del
di
il
governo
Monti
.
Che
tanto
mica
abbiamo
problemi
più
seri
...
noooo
,
noooooo
...

fattoquotidiano
:
#Grillo
attacca
#Vendola
:
"
Supercazzola
che
fa
affari
con
la
Marcegaglia
"
-
Video
http://t.co/eKaGEQbE
http://t.co/ufIMThR8

RT
@pausinismile
:
la
maggiorparte
dei
di
i
miei
tweet
parlano
del
di
il
mio
idolo
.

Ma
#Grillo
è
davvero
convinto
che
facendo
ammujna
si
passa
dalla
da
la
parte
della
di
la
ragione
?

@albertinodj
a
Roma
invece
è
cosí
primavera
che
sembra
gia
giov
.

RT
@Fedcittsovr
:
Da
impazzire
...
possiamo
vivere
come
gli
svizzeri
,
ma
preferiamo
fare
la
fine
dei
di
i
cittadini
ellenici
..
la
mamma
degli
di
gli
italiot…

@PiazzapulitaLA7
#piazzapulita
Troppo
poco
spazio
alla
a
la
bestialità
che
#Grillo
ha
detto
sui
su
i
figli
degli
di
gli
immigrati
nati
in
Italia
.

#openpa
#elepa
La
vicenda
della
di
la
piazza
negata
nel
in
il
Blog
di
Beppe
#Grillo
http://t.co/7YHLHRuv

Governo
Monti
:
ricetta
efficace
per
il
bene
dell'
di
l'
Italia
?
Diamoci
Diamo
ci
da
fare
tutti
e
salveremp
qs
ns
povero
paese
...

Che
ne
pensate
dei
di
i
nomi
del
di
il
governo
monti
?
Ditelo
Dite
lo
in
tre
parole
con
l'
hashtag
#3parolesumonti

Chuck
Norris
è
riuscito
a
non
farsi
far
si
inculare
da
Mario
Monti
#chucknorris

Sulla
Su
la
faccenda
di
#equitalia
(
al
a
il
netto
dei
di
i
complotti
farlocchi
)
sospendo
giudizio
ma
di
sicuro
è
un
segnale
chiaro
e
forte
#governo
#monti

#Grillo
si
fa
portavoce
della
di
la
"
nuova
società
civile
"
al
a
il
Potere
contro
la
partitocrazia
ladrona
.
Ma
non
e'
nata
cosi
anche
la
2a
Repubblica
?

La
camera
dei
di
i
deputati
approva
la
manovra
del
di
il
governo
Monti
con
495
voti
a
favore
.
AFP

#Grillo
:
«
Faremo
una
#Norimberga
ai
a
i
partiti
»
Il
leader
del
di
il
Movimento
#5Stelle
:
«
Ci
hanno
portato
alla
a
la
fame
,...
http://t.co/2YSw8DZB

RT
@enricobertolino
:
Tempo
fa
Intercettato
anche
il
cellulare
di
Bersani
dagli
da
gli
USA
,
nessuna
protesta
dal
da
il
PD
.
pare
gli
abbian
fatto
3
ricari…

Consiglio
aperto
sulla
su
la
manovra
del
di
il
governo
Monti
http://t.co/rDAEsk2Y
@IlTirreno
Pontedera

RT
@MondoPalloneIT
:
MotoGP
,
Phillip
Island
:
Marquez
viene
squalificato
e
Lorenzo
riapre
il
Mondiale
http://t.co/rynwpksZKK
#MondoPallone

Questo
non
é
un
governo
di
destra
.
Pier
Luigi
Bersani
sul
su
il
governo
Monti
,
sul
su
il
Corriere
di
oggi

TT
ITALIA
00:08
1
.
#serviziopubblico
2
.
#piazzapulita
3
.
#Grillo
4
.
Trota
5
.
Prince
Of
Persia
6
.
Franca
Rame
7
.
Billboard
Awards
8
.
Lega

Si
all'
a
l'
Europa
no
all'
a
l'
EuroBANCA
!
No
a
Mario
Monti
#nomonti
@Piopporosso
@RaffaellaMad
@SabaGiulia
@santicautela
@secoloditalia

RT
@ilmanifesto
:
et
voilà
,
ecco
#laprima
del
di
il
manifesto
in
edicola
(
pre-abbonatevi
pre-abbonate
vi
su
https://t.co/BgLzV38RN4
)
#19o
http://t.co/nbaEy673fP

al
a
il
prossimo
Cdm
il
governo
#Monti
proporrà
l'
abolizione
del
di
il
valore
legale
del
di
il
titolo
di
studio
..
continuiamo
a
dire
che
è
un
gran
bel
governo

@galgoschelotto
Ma
gago
un
ruolo
alla
a
la
vice
pepe
no
????
i
su
prossimo
anno
alla
a
la
juve

RT
@ellyesse
:
domani
a
Roma
@Civati
lancerà
la
campagna
congressuale
,
e
ci
invita
tutti
!
Al
A
il
Teatro
Vittoria
alle
a
le
17
o
in
streaming
https://t…

#calcio
@diggita
Calcio
-
Choc
in
campo
a
Pescara
Morosini
crolla
e
muore
sospesi
tutti
i
campionati
,
Le
foto
del
di
il
d...
http://t.co/lVEkfy2s

Secondo
me
nel
in
il
governo
#Monti
ci
mettono
pure
Bini
Smaghi
.
Così
Sarkozy
e'
contento
.
E
poi
basta
,
pero'
.

Nn
posso
fare
a
meno
di
pensare
ad
un
terzino
sx
del
di
il
foggia
ai
a
i
tempi
di
zeman
quando
ti
vedo
#quasi30anni

"
pisapia
come
moratti
:
milano
=
area
c
"
dice
quello
di
dx
.
"
ma
basta
con
sto
gratosoglio
,
sto
impazzendo
con
il
pass
"
dice
quello
di
sx

RT
@_liamlovespoons
:
se
anche
tu
vorresti
abbracciare
il
tuo/oi
idolo/i
#rt
seguimi
segui
mi
e
ti
seguo
♥
x22

Nessuno
dei
di
i
#ministri
del
di
il
governo
#monti
é
del
di
il
sud
Italia
e
la
#lega
nn
voterà
la
fiducia
...
#soncose

@niallspudding
tutte
tutteeeeee
,
anche
se
:3
Same
Mistakes
<3

Fantagoverno
.
Fabio
Volo
,
Giovanni
Sartori
,
Roberto
Saviano
:
ecco
il
governo
dei
di
i
Migliori
Mario
Monti
...
http://t.co/lGU6FMg1

RT
@RonnieForlani
:
"
Questo
sì
che
è
X
Factor
,
cazzo
.
"
-
Mika
Ahahahah
quanto
è
dolce
❤
❤
#XF7
#XFactorItalia

@shesafeandsound
Heey
bella
ragazza
,
non
sai
quanto
mi
puo'
piacere
la
tua
icon
IUUBHBHJB
ti
do'
un
bel
8
,
spero
che
vada
bene
**

Domenica
18
dicembre
alle
a
le
9
al
a
il
Centro
Congressi
#Frentani
la
#FederazioneDellaSinistra
manifesta
contro
la
#manovra
del
di
il
governo
#Monti
.

Cosa
hai
imparato
che
non
c'
è
sui
su
i
libri
?
La
risposta
di
@LuTheMonkey
"
l'
importanza
delle
di
le
persone
e
dei
di
i
volontari
"
#mmpunibo
@25lettori

RT
@fattoquotidiano
:
#Grillo
attacca
#Vendola
:
"
Supercazzola
che
fa
affari
con
la
Marcegaglia
"
-
Video
http://t.co/BeJRJPih
Ah
Vè
..
ma
bfaaff

Ornaghi
,
Cancellieri
e
Severino
.
Il
Governo
#Monti
preannunciato
dagli
da
gli
studenti
.
Come
i
temi
della
di
la
maturità

dalla
da
la
rass
stampa
http://t.co/oY6cSjd5
di
#CitofonareAdinolfi
si
capisce
più
dai
da
i
giornali
che
dalle
da
le
Camere
,
la
fragilità
del
di
il
governo
Monti

@CloCecchetto
sostieni
30
ore
per
la
vita
e
la
maratona
di
radio
private
che
parte
sabato
prossimo
alle
a
le
16
!
Consigliaci
Consiglia
ci
ai
a
i
tuoi
followers
!

Buon
lavoro
!
:
Mario
Monti
:
Presidente
del
di
il
Consiglio
con
delega
all'
a
l'
Economia
e
alle
a
le
Finanze
.
Corrado
Passera
:
Mi
...
http://t.co/Kb6Cwkly

Si
all'
a
l'
Europa
no
all'
a
l'
EuroBANCA
!
No
a
Mario
Monti
#nomonti
@masechi
@mchicco
@mara_carfagna
@MatteoPrugnoli
@Paternoster_mim

@edo_chiesa
Ci
sono
circhi
e
circhi
.
#Grillo
fa
parte
della
di
la
categoria
degli
di
gli
artisti
.
Poi
,
ci
sono
le
categorie
dei
di
i
pezzenti
@italiadeidolori

Dalle
Da
le
porte
dell'
di
l'
alba
alle
a
le
porte
dell'
di
l'
ombra
Un
corpo
per
passare
la
mia
vita
ad
amarti
amar
ti
..
(
Paul
Eluard
)
grazie
a
@maripiani
***

Il
vecchio
governo
paragonato
al
a
il
governo
#monti
sembra
il
cast
di
un
film
di
lino
banfi
e
Renzo
montagnani
rispetto
ad
uno
di
scorsese

RT
@AmorosoOF
:
Cataniaaa
..
5
ore
di
#firmacopie
ed
io
sn
felicissima
!!!
grazieeeee
#amorepuroinstore
notteeee
😘
😘
😘

#Grillo
fa
i
comizi
sulle
su
le
cassette
della
di
la
frutta
,
mentre
alcune
del
di
il
#Pdl
li
fanno
senza
cassetta
...
solo
sulle
su
le
banane
.
#ballarò
@Italialand

E'
ora
di
passare
dall'
da
l'
esportazione
all'
a
l'
internazionalizzazione
per
partecipare
alla
a
la
#crescita
e
allo
a
lo
sviluppo
dei
di
i
paesi
emergenti
.
#imprese

La
via
per
uscire
dalla
da
la
crisi
per
la
Bce
è
a
senso
unico
;
la
manovra
varata
dal
da
il
governo
#Monti
sembra
andare
contromano
http://t.co/9dsDeqjA

Ma
serviva
Monti
all'
a
l'
Italia
?
mario
monti
,
tasse
,
spread
,
italia
,
giuliano
zulin
liberoquotidiano.it
:
http://t.co/m9BySvX3
via
@AddThis

Ciao
@rtl1025official
.
vorrei
sentire
una
canzone
chiamata
"
RENASCER
"
della
di
la
band
brasiliana
chiamata
RESTART
!

"
@agorarai
:
Lupi
:
il
governo
#Monti
non
ha
problemi
di
consenso
e
può
permettersi
permetter
si
misure
più
dure
#agorarai
"
MAVFNC
ai
a
i
lupi
e
alle
a
le
pecore

#news
#genova
Ponte
di
Carasco
/
I
Pm
nominano
i
periti
:
stabiliranno
le
cause
del
di
il
crollo

D'Alema
#Grillo
a
Civitavecchia
in
definitiva
è
un
mix
tra
il
primo
Bossi
e
il
Gabibbo
.
Quello
che
ha
governato
l'
Italia
negli
in
gli
ultimi
15
anni

Dia
Mundial
del
di
il
Jazz
con
il
mio
amore
Chet
Baker
http://t.co/rUG0LWIt
<3

Mario
Monti
ha
già
fatto
un
miracolo
:
gli
indignati
della
di
la
Sapienza
alleati
con
Sallusti
nellla
in
la
denuncia
del
di
il
complotto
tecno
massonico
.

“
@MarcoFiore84
:
Beppe
#Grillo
ed
il
#M5S
stanno
alla
a
la
#democrazia
come
#Monti
alla
a
la
#Sinistra
.
”
ahahah
bella
questa
..
ma
cosa
intendi
per
demo
?

MARIO
MONTI
:
72.000
EURO
AL
A
IL
MESE
.
ECCO
QUELLO
CHE
LE
TV
NON
TI
DICONO
SUL
SU
IL
NUOVO
PREMIER
.
|
Free
Italy
:
http://t.co/xCABfmAH
via
@AddThis

@VodafoneIT
Ho
fatto
un
transloco
e
aspetto
per
il
segnale
al
a
il
mio
Vodafone
station
65
giorni
,
ora
devo
pagare
transloco
e
fattura
.
Opinioni
?

Il
#MoVimento5Stelle
è
più
vicino
alla
a
la
gente
perchè
è
fatto
dalla
da
la
gente
,
chi
oggi
ha
paura
di
#Grillo
in
realtà
ha
paura
della
di
la
gente
...

Riuscite
a
comprendere
come
le
azioni
del
di
il
governo
Monti
stanno
cambiando
l'
Italia
?
Cosa
sta
cambiando
?
Ancora
PdL
e
Lega
al
a
il
TG1
?
...

#Grillo
guadagna
consensi
e
il
Pd
cosa
fa
?
manda
Renzi
?
fosse
stato
un
film
di
Pieraccioni
,
poteva
anche
starci
star
ci
...
#serviziopubblico

Angry
Birds
Space
,
c’
è
un
fake
che
contiene
un
malware
-
Tutto
Android
http://t.co/ZbPpfHsK
#android
via
@TuttoAndroid

Governo
Monti
:
dal
da
il
Senato
via
libera
alla
a
la
fiducia
con
281
sì
.
Schifani
:
buon
lavoro
nell'
in
l'
interesse
del
di
il
Paese
http://t.co/xuqzvUVc

@MangioLiamPayne
Sono
in
limit
D:
Comunque
la
vorrei
fare
anche
ora
una
twitcam
:3
ma
internet
mi
va
di
merda
lol

Da
grande
sposerò
Gary
Oldman
.
Anche
se
sarà
vecchio
sarà
comunque
un
fregno
pazzesco
.

@la_elena
Ragazzi
date
un
occhiatta
a
questo
social
network
della
di
la
SONY
:
http://t.co/lV9nc3zB
Ci
sono
anche
dei
di
i
premi
in
vincita
!

Partecipa
a
Unire
la
sinistra
contro
il
governo
Monti
.
Partiamo
dall'
da
l'
Umbria
Oggi
dalle
da
le
18.00
alle
a
le
21.00
.
di...
http://t.co/DzgQIt5e

@pierpier24
#lultimaparola
Condivido
in
pieno
cmq
ne
parlino
pro
o
contro
#Grillo
prende
voti
Gia
immagino
loro
facce
nei
in
i
talk
giorno
dopo
!

RT
@TaniuzzaCalabra
:
“
non
si
preoccupi
signor
Obama
,
quando
parlo
di
bombe
mi
riferisco
alle
a
le
bruschette
alla
a
la
'nduja
"
#IntercettaME

Bersani
al
a
il
gruppo
sintetizza
la
linea
rispetto
al
a
il
governo
monti
:
o
si
va
a
messa
o
si
sta
a
casa
.
Noi
andiamo
a
messa
per
il
bene
dell'
di
l'
italia

Pannella
scrive
con
le
x
e
cose
del
di
il
tipo
"
finalmente
together
"
a
#Grillo
sulla
su
la
questione
#Norimberga
Vi
prego
ditemi
dite
mi
che
è
tutto
uno
scherzo

La
manovra
del
di
il
Governo
Monti
Che
ne
pensate
?
http://t.co/z19FCyPr
LaNazione
Pontedera

#serviziopubblico
Dopo
la
pubblicita'
c'
e'
l'
intervista
a
Beppeee
Beppeee
Beppeee
!!!
#Grillo
pero'
...

@La7tv
:
#OttoEMezzo
Gruber
:
'
Mario
Monti
Massone
su
google
:
lei
è
massone
?
'
e
se
lo
fosse
la
Gruber
?

il
Pdl
dica
chiaramente
che
il
limite
finale
del
di
il
governo
Monti
sarà
lo
spread
a
600
e
itassi
btp
al
a
il
8
%

Da
grandi
poteri
derivano
grandi
responsabilità
,
Illustre
Professor
Monti
.
Now
save
us
!

«
Non
mi
sento
assolutamente
disperato
»
:
Mario
Monti
nel
in
il
suo
intervento
alla
a
la
Camera
di
ieri
,
prima
del
di
il
secondo
vo...
http://t.co/tCt9ofXM

#Grillo
è
come
il
Giannini
dell'
di
l'
uomo
qualunque
,
tutto
si
ripete
,
la
gente
si
eccita
a
sentirlo
sentir
lo
,
è
anche
utile
,
è
un
viagra
parlante
...

Governo
Monti
,
se
il
cambio
di
passo
arriva
anche
sul
su
il
Web
Tg24
Sky.it
|
@scoopit
http://t.co/hEkTP9Tz

@VaneKastronov
effettivamente
tutti
sti
cuori
sti
sorrisi
inutili
ahhhhhh

A
mio
avviso
il
#Movimento5stelle
di
#Grillo
che
tanto
accusava
la
#politica
,
ora
da
antipolitca
è
nel
in
il
pieno
della
di
la
politca
.
Questa
è
serietà
?

Inizio
ad
adorare
Mario
Monti
.
Merita
una
standing
ovation
!
Ecco
la
risposta
all'
a
l'
interrogazione
di
Calderoli
http://t.co/QNVk0jf5

Il
Governo
Monti
potrebbe
decidere
di
ridurre
lo
stipendio
dei
di
i
parlamentari
(
Bechis
di
Libero
Wall
Street
)
http://t.co/seUOnrm7

passata
la
sbornia
di
sobrietà
del
di
il
governo
monti
,
rendiamoci
rendiamo
ci
conto
che
sono
dei
di
i
baroni
cattolici
che
inculeranno
il
ceto
medio
/
basso

caro
Mario
Monti
,
se
vai
su
e
sistemi
un
pò
di
robe
ricordati
ricorda
ti
di
mettere
via
I
strada
a
senso
unico
e
della
di
la
nuova
piscina
alla
a
la
Trave...

martedì
29
alle
a
le
21
in
sede
a
via
L.
Da
Vinci
5
PG
ci
confrontiamo
su
:
governo
Monti
,
evento
del
di
il
2/12
sul
su
il
dissesto
geologico
,
festa
del
di
il
10/12

Monitaly
20
-
27
nov
:
il
governo
Monti
muove
i
primi
passi
e
l'
Italia
rientra
tra
le
figure
chiave
dell'
di
l'
eurozona
:
...
http://t.co/0GOjevAZ

La
nuova
sala
stampa
di
Palazzo
Chigi
by
Mario
Monti
e'
degna
della
di
la
sala
funerali
del
di
il
Cimitero
Verano
!

Passera
nel
in
il
governo
Monti
?
E
dov'
è
la
novità
?
Nel
In
il
governo
nanico
di
passera
ce
n'
era
a
quintali
!

Amici
tranquilli
che
il
30
%
degli
di
gli
italiani
e
fra
le
braccai
dell'
di
l'
influenza
,
l'
altro
70
%
risente
dell'
di
l'
influenza
del
di
il
governo
Monti
:-)

@DogoFiera89
siii
io
voglio
lo
screen
delle
di
le
mie
risposte
hahahha
!
A
Milano
il
16
?
Mi
pare
ovvio
!
Senza
di
me
non
fanno
il
Live
#Capo

nominato
il
nuovo
gorverno
dal
da
il
Premier
Mario
Monti
tutto
ok
c'
è
della
PASSERA
anche
in
questo
,
heheheheheheheheheheheh

ma
perchè
se
uno
dice
le
stesse
cose
di
santoro
sul
su
il
governo
#monti
è
anti
italiano
e
se
le
dice
santoro
è
verbo
?
#perplesso

Mario
Monti
:
presidente
della
di
la
Trilaterale
,
membro
del
di
il
GruppoBilderberg
,
advisor
di
GoldmanSachs
.
Non
è
1
bella
notizia
#fullmonti

#f1
#formula1
Dai
Gas
alla
a
la
sicurezza
.
Partirà
da
Modena
il
Ferrari
Driver
Academy
Tour
:
Maranello
,
26
aprile
-
P...
http://t.co/HhxRFnhb

RT
@creamvato
:
“
fla
,
sposati
sposa
ti
uno
ricco
,
sei
troppo
costosa
.
“
crepo
,
grazie
del
di
il
consiglio
papà
.

Inizio
ad
adorare
Mario
Monti
.
Una
risposta
all'
a
l'
interrogazione
di
Calderoli
che
merita
una
standing
ovation
http://t.co/QNVk0jf5

La
linea
di
Renzi
per
incalzare
il
governo
Monti
-
[
Il
Foglio.it
>
Cerazade
]:
http://t.co/ATiOlLoe
via
@claudiocerasa

@_har0lds
oddio
le
amo
tutte
ma
credo
...
Last
first
kiss
❤

#rinnovabili
domani
question
time
del
di
il
PD
,
alla
a
la
Camera
,
sulle
su
le
rinnovabili

I
ministri
del
di
il
Governo
Monti
saranno
12
,
tutti
tecnici
.
I
sottosegretari
,
invece
,
saranno
tutti
politici
.
E
ci
sará
anche
qualcuno
di
FLI

Il
cuor
di
una
donna
è
come
un
campo
difiori
La
pioggia
che
cade
per
bagnarli
bagnar
li
,
son
le
suelacrime
Il
sole
che
riscalda
i
petali
,
il
suosorriso

#Scilipoti
sta
manifestanto
davanti
alla
a
la
Camera
contro
il
limite
di
utlizzo
dei
di
i
contanti
deciso
dal
da
il
governo
Monti
.
Non
è
uno
scherzo
.
Giuro

Nuovo
governo
monti
:
dal
da
il
bunga
bunga
al
a
il
banca
banca
...

Il
cappello
magico
di
Harry
Potter
disse
:
Nel
In
il
governo
Monti
le
ministre
sono
3
.
Come
le
Grazie
.
Chi
é
che
vuole
fare
grazie
al
a
il
cazzo
?

cerco
di
tener
dritta
rotta
di
senso
pratico
di
sacrifici
ma
governo
Monti
a
sua
insaputa
mi
convice
che
è
kazzata
,
ja
http://t.co/eNrYWCb4

@Maraaaaaas
AHAHAHAHHAHAHHAHAHAHAH
il
costume
basso
ma
i
è
capace
di
iperventilarci
iperventilar
ci
(
?
)
anche
vestito
di
lana
fino
al
a
il
collo
(
?
)

B.
tenta
l'
ultima
carta
per
paura
di
emorragia
voti
con
la
Lega
all'
a
l'
opposizione
del
di
il
Governo
Monti

RT
@protectmelouis
:
ditemi
dite
mi
se
non
è
una
delle
di
le
cose
più
belle
del
di
il
mondo
http://t.co/VrPwOAhiux

Mentana
sintetizza
il
perché
del
di
il
Governo
Monti
TG
LA7
10/12/11
http://t.co/Cm9rkxqj

#mustread
>
La
lettera
al
a
il
governo
#Monti
del
di
il
Sottosegretario
alle
a
le
#Migrazioni
della
di
la
Repubblica
tunisina
http://t.co/fRi3R7AN
via
@lonzero

C'
È
ANCORA
GENTE
FERMAMENTE
CONVINTA
CHE
'
LEGO
HOUSE
'
SIA
CANTATA
DA
RON
DI
HARRY
POTTER
.
#chetristezza

Limone
nell'
in
l'
ano
per
lui
,
capitone
vivo
per
lei
.
Prime
indiscrezioni
sui
su
i
provvedimenti
del
di
il
governo
#Monti
.
http://t.co/8ov9eYQz
#sapevatelo

RT
@Idvstaff
:
Polillo
vorrebbe
Berlusconi
al
a
il
Quirinale
.
Il
governo
Monti
,
continuando
così
rischia
di
apparire
come
la
faccia
sobria
del
di
il
satrapo
peccatore

Manovra
/
Ferrero
:
stangata
sociale
del
di
il
governo
Monti
contro
i
lavoratori
|
umbrialeft.it
http://t.co/64XFwzPm

Domani
a
#portaaporta
Mario
Monti
risponderà
alle
a
le
domande
di
Crepet
sul
su
il
delitto
di
Avetrana
.

Orto
Botanico
Cagliari
:
a
ormai
1
anno
dal
da
il
primo
attacco
ad
opera
del
di
il
punteruolo
rosso
,
non
è
stata
ancora
tagliata
la
P.
dactylifera
morta

@LUltimaParola
parlate
dei
di
i
movimenti
#antipolitica
,
ma
Che
in
realtá
sono
la
rabbia
Della
Di
la
gente
come
#Grillo
#noitaliani
@MOVNORMALISTA

RT
@cappellani
:
Booktrailer
del
di
il
mio
ultimo
libro
"
Sull'
Su
l'
Etna
non
uccidono
mai
nessuno
"
http://t.co/9GlLJEXVQw

RT
@msgranger_
:
voglio
vedere
dei
di
i
profili
perfetti
.
#rt
seguimi
segui
mi
,
ricambio
e
ti
voto
il
profilo
.
non
unfollowo
se
non
lo
fai
tu
.

“
@TTmobile_
:
#Grillo
è
appena
entrato
nei
in
i
TT
Italia
in
posizione
2
”
@OrodAndrea_JFC
@gianlug90
super
zio
greeeeeee
!!!

Juve
,
Paratici
a
Brescia
per
El
Kaddouri
e
definire
Leali
.
Piace
anche
Arcari
come
terzo
portiere
.
I
http://t.co/RBMtgNyz

Il
18
al
a
il
centro
congresso
frentani
costruiamo
l'
opposizione
comunista
al
a
il
governo
Monti
!
Partecipate
!
http://t.co/huTiNibm

Maroni
conferma
:
"
Governo
Monti
?
Noi
fuori
"
:
ROMA
–
''
Se
il
presidente
della
di
la
Repubblica
Napolitano
dara'
l'
inca...
http://t.co/nZAXYpPJ

Crisi
:
Fitch
,
Italia
gia'
in
recessione
ma
governo
Monti
e'
credibile
:
Londra
,
17
nov
.
–
(
Adnkronos
)
–
"
L'
Italia
...
http://t.co/lepiCzEp

la
latitanza
della
di
la
Rai
alla
a
la
conferenza
stampa
di
Mario
Monti
@ggramaglia
,
però
Rainews
ha
fatto
un'
ottima
diretta
.
Bistrattata
,
ma
è
Rai
!

Mh
,
dovrei
scrivere
qualcosa
nella
in
la
bio
ma
non
so
cosa
lol

Mario
#Monti
e
Mario
#Draghi
sono
massoni
.
Sostiene
il
portavoce
del
di
il
God
alla
a
la
Zanzara
.
Sconcerto
e
sbigottimento
.

Goldman
Sachs
innesca
la
crisi
e
poi
piazza
Mario
Monti
a
risolverla
risolver
la
http://t.co/fcEveaYw
via
@byoblu

RT
@tnkzay
:
'
GENITORI
VS
FIGLI
'
pt
.
12
'
io
alla
a
la
tua
età
non
passavo
tutto
questo
tempo
a
computer
'
GRAZIE
AL
A
IL
CAZZO
NON
ESISTEVA
MANCO
!

Seguite
tutti
@MargheandFior
perchè
nella
in
la
sua
icon
Harry
è
dolcissimo
**

Finalmente
posso
guardarmi
guardar
mi
"
The
first
time
"
*w*

RT
@grandericchiuti
:
conte
fa
il
possibilista
e
pragmatico
sui
su
i
moduli
.
e
poi
dobbiamo
tenerci
tener
ci
padoin
sulla
su
la
fascia
contro
il
principio
di
re…

Se
Mentana
non
ci
ripensasse
l'
interim
del
di
il
tg
de
La7
andrà
a
Mario
Monti
.

Ribadisco
.
Lo
spirito
di
Cencelli
tornera'
ad
aleggiare
sui
su
i
vice
e
i
sottosegr.
In
ogni
caso
,
buon
lavoro
al
a
il
nuovo
governo
monti
.

@FOrizio
i
forza
fatti
fat
ti
coraggio
il
topo
e'
sempre
cn
te
anche
quando
non
lo
puoi
vedere
!
Appena
vado
all'
a
l'
ikea
gli
compro
la
fidanzata
!!

my
name
is
monti
,
mario
#monti

Auguri
di
buon
lavoro
al
a
il
neo
Presidente
del
di
il
Consiglio
dei
di
i
Ministri
Mario
Monti
ed
a
tutto
il
Governo
.
Good
Luck
Italia
#oramonti
#italia

#Movimento5stelle
#Politica
#Italia
#Grillini
E
#Grillo
va
,
alla
a
la
conquista
del
di
il
paese
!
|
hubmagazine
http://t.co/8eq0QdFy

Beauty
contest
,
il
Pd
chiede
al
a
il
governo
Monti
di
cambiare
le
regole
:
Non
si
può
regalare
agli
a
gli
incum
.
http://t.co/FmzDHSMP

Pochi
di
voi
hanno
il
dono
del
di
il
pensiero
ecologico
,
incentrato
sul
su
il
risparmio
.
Peggio
per
voi
,
siete
i
primi
a
lamentarvi
lamentar
vi
di
tutto
comunque
.

Non
è
un
caso
che
i
Queen
abbiano
fatto
da
colonna
sonora
al
a
il
film
Highlander
.
#immortali

Panico
al
a
il
Tg1
:
ma
chi
caxxo
è
Mario
Monti
?
http://t.co/Jc8mQpYo
via
@giornalettismo

Governo
Monti
al
a
il
via
:
Ici
,
Iva
e
lotta
all'
a
l'
evasione
Rassegna.it
http://t.co/IWyUGcIB

Un
eventuale
(
eventuale
?!
)
governo
#Monti
svela
l'
inettitudine
dell'
di
l'
attuale
classe
politica
e
l'
assenza
di
una
vera
alternativa
a
B.
Sigh
!

TT
ITALIA
23:48
1
.
#piazzapulita
2
.
#serviziopubblico
3
.
#Grillo
4
.
Belsito
5
.
Franca
Rame
6
.
Prince
Of
Persia
7
.
M5S
8
.
Nero
Wolfe

LAZIONEWS
.
EU
-
MERCATO
.
BRANCA
:
“
ZARATE
?
Decideremo
se
riscattarlo
riscattar
lo
dopo
l'
ultima
giorn...
http://t.co/qQfM5snQ
#lazio
#calcio

TT
Twitter
Italia
03:30
:
1
.
#cinemaInChiesa
2
.
#serviziopubblico
3
.
#Grillo
4
.
Trota
5
.
Levon
Helm
6
.
Damon
and
Elena
7
.
Prince
Of
Persia

RT
@zouis_9391
:
Ehi
tu
!
si
proprio
tu
lo
so
che
hai
letto
bhe
continua
a
leggere
#rt
seguimi
segui
mi
e
ti
seguo
in
più
ti
voto
l'
con
in
%
...
daii
i
…

Mario
Monti
....
la
mia
è
una
disponibilità
generosa
per
guidare
il
governo
.....
quanto
ci
costa
questa
generosità
?
20mila
o
30mila
al
a
il
mese
?

Dopo
il
seratone
del
di
il
Groove
...
i
LOST
replicano
aspettando
il
1°
Maggio
-
LOST
IN
80s
LIVE
-
LUN
30
APRILE
@
the
...
http://t.co/xYQdoUmQ

Save
the
date
:
il
prossimo
StartuParty
sarà
il
30
Maggio
a
Milano
.
X
info
:
iscriviti
iscrivi
ti
alla
a
la
mailing
list
http://t.co/ndCtgsH9
”
RT
@francingu

"
@IlGrillotalpa
:
Aironi
,
scoppia
anche
la
grana
-
Zaffanella
http://t.co/1sjFrHr3
"
ci
mancava
sol
questa
...
gia
#Grillo
mi
stava
sulle
su
le
balle

TT
ITALIA
02:48
1
.
#cinemaInChiesa
2
.
#serviziopubblico
3
.
#Grillo
4
.
Trota
5
.
Levon
Helm
6
.
Prince
Of
Persia
7
.
Lega
8
.
Franca
Rame

Governo
Monti
e
ruolo
del
di
il
Pd
,
ne
parlano
Cenni
e
Bezzini
lunedì
a
Gaiole
http://t.co/9RDwEW28

BERLUSCONI
E
COMPANY
E'
UN
POTERE
FORTE
NN
ILLUDIAMOCI
ILLUDIAMO
CI
CHE
FILI
TUTTO
LISCIO
VERSO
IL
GOVERNO
MONTI
.

@macaionemartina
@salvosottile
@LineaGiallaLa7
La
Franzoni
è
molto
controversa
.
A
me
,
nn
sembra
innocente
.
Ma
nn
metto
in
croce
nessuno

Il
governo
#Monti
è
sotto
scacco
del
di
il
Conflitto
d'
Interessi
di
B.
ed
è
imbarazzante
l'
ammissione
del
di
il
baratto
fiducia
e
#FrequenzeTv
#Ballarò

condividere
sempre
col
con
il
cliente
un
progetto
che
possa
aiutarlo
aiutar
lo
nell'
in
l'
ottimizzare
le
risorse
e
far
in
modo
che
tutto
si
fluido
ed
efficace
,
au…

Riccardi
,
Ornaghi
...
#Vaticano
e
#Cei
nel
in
il
governo
Monti
.
Molto
rischioso
(
per
tutti
)

Governo
:
Monti
,
Paese
superera'
fase
difficile
:
Roma
,
15
nov
.
(
Adnkronos
)
?
L'
Italia
"
sapra'
superare
questa
fas...
http://t.co/mYXh3jjj

#Buongiorno
mondoooo
!!!
Iniziamo
bene
questa
giornata
con
un
#RT
,
seguimi
segui
mi
e
ti
riseguo
?!
Si
parteeeeeeee
:)
JBBoy

HOLY
SHIT
....
Per
Mario
Monti
i
giovani
dovranno
dimenticarsi
dimenticar
si
del
di
il
posto
fisso
:
E'
troppo
monotono
|
tiscali
.
notizie
http://t.co/K3i6jJTr

#Grillo
"
nn
siamo
ne
di
dx
ne
di
sx
"
un
po'
come
qndo
la
#Bonino
disse
nel
in
il
'
99
"
siamo
opposizione
della
di
la
maggioranza
e
opposiz
dell'
di
l'
opposiz
"

Reading
:
Mario
Monti
è
l'
uomo
della
di
la
provvidenza
?
Affaritaliani.it
(
http://t.co/XGUk6jJn
)

Governo
Monti
crolla
sulle
su
le
liberalizzazioni
.
Taxisti
-
Monti
1
-
0
.
La
Lagrimosa
Elsa
si
sgonfia
sulle
su
le
pensioni
.
Trilateral
out
.

Bene
Granzotto
per
la
tua
reprimenda
al
a
il
gesto
di
piaggeria
di
Iacopino
per
la
tessera
da
giornalista
a
Mario
Monti
che
dovrebbe
restituirla
restituir
la
!

Mario
Monti
alla
a
la
guida
del
di
il
Governo
?
Berlusconi
:
"
scelta
...
MNews.IT
http://t.co/SlQFCVOz

@SkyTg24
Costretti
al
a
il
risparmio
...
ancora
...
Ma
ho
fiducia
nella
in
la
manovra
e
nel
in
il
governo
Monti
...
Prof.
Monti
non
ci
deluda
anche
lei
.

TT
Twitter
Italia
05:30
:
1
.
#cinemaInChiesa
2
.
#serviziopubblico
3
.
#Grillo
4
.
Trota
5
.
Levon
Helm
6
.
Damon
and
Elena
7
.
Prince
Of
Persia
8
.
Lega

Due
scioperi
,
flash
mob
,
sit-in
e
due
cortei
.
Roma
paralizzata
nel
in
il
primo
giorno
del
di
il
governo
Monti
:
http://t.co/dnR5GGrI

@Rossonerosemper
resta
il
fatto
che
dal
da
il
25
marzo
abbian
perso
7
punti
,
proprio
in
coincidenza
con
l'
infortunio
di
Thiago
Silva

Cari
,
fan
del
di
il
Governo
#Monti
,
adesso
spiegatici
spiegati
ci
la
differenza
con
quello
col
con
il
Tre
davanti
.
Io
proprio
non
la
vedo
.
Ah
,
le
pensioni
!
#manovra

@winchesters__
Tu
non
hai
idea
di
quanto
ti
capisco
!
Io
amo
TVD
,
seguo
anche
TSC
e
sto
iniziando
a
vedere
Glee
,
x
me
sono
come
dei
"
rifugi
"
!

@shesayhellobird
Hai
presente
alla
a
la
fine
?
Quando
Rose
è
sdraiata
sulla
su
la
porta
?
Se
uscisse
in
4D
Potremmo
vedere
se
ci
fosse
posto
anche
per
Jack

@Miranda_Italy
puoi
dire
ai
a
i
tuoi
vandali
di
venire
anche
da
me
?
io
14
,
soono
piicccina
c':
♥

RT
@LouTomlinfiglio
:
Uscire
dalla
da
la
stanza
in
pigiama
e
trovarsi
trovar
si
davanti
sconosciuti
che
ti
fissano
.
Cos'
è
?
Non
avete
mai
visto
un
pigiama
co…

Napolitano
:
«
saremo
all'
a
l'
altezza
del
di
il
compito
»
:
Verso
un
governo
di
Unità
nazionale
guidato
da
Mario
Monti
.
«
L'
Eur...
http://t.co/rmIrBeOR

#3parolesumonti
Ma
sapremmo
abituarci
abituar
ci
alla
a
la
serietà
del
di
il
governo
Monti
?

Difficile
sottovalutare
il
contributo
di
Santoro
e
#Grillo
alla
a
la
coscienza
civile
e
alla
a
la
democrazia
italiana

Con
la
riforma
delle
di
le
#pensioni
del
di
il
governo
#Monti
ci
toccherà
ascoltare
gli
orgasmi
calcistici
di
José
#altafini
per
almeno
altri
5
anni

@matteorenzi
siccome
il
governo
monti
(
che
a
me
piace
molto
)
finirà
spero
nel
in
il
2013
mi
chiedo
e
le
chiedo
se
lei
si
candiderà
alle
a
le
pross
elez

Da
leggere
oggi
Vincenzo
Visco
sull'
su
l'
Unitá
che
spiega
perché
il
governo
Monti
non
é
esattamente
un
governo
di
destra
http://t.co/8mx6Y5sJ

@lucasofri
@AleGilioli
..
il
fenomeno
#Grillo
in
#Rete
è
dovuto
alla
a
la
#occupazione
degli
di
gli
altri
#media
da
parte
dei
di
i
#giornalisti
venduti
!

Mario
Monti
,
l'
allievo
dei
di
i
Gesuiti
che
piace
alle
a
le
Banche
e
Finge
di
voler
Aiutare
gli
Italiani
Chiedendo
Sacrifici
ai
a
i
più
Deboli
.

@AperAnna
gia
gia
lunedi
ti
dico
anche
se
non
ci
sono
molte
news
succulente

RT
@drewspac
:
non
vedo
l'
ora
di
diventare
maggiorenne
per
andarmene
andar
me
ne
da
sta
città
di
merda
e
di
andarmene
andar
me
ne
dai
da
i
miei
parenti
.

Via
libera
dal
da
il
#Pd
all'
a
l'
ingresso
diGianni
Letta
e
Giuliano
Amato
nel
in
il
Governo
#Monti
.
Che
vergogna
!
:-(
#oramonti

Vi
raccontiamo
in
12
punti
che
cosa
c'
è
nel
in
il
decreto
sulle
su
le
liberalizzazioni
del
di
il
governo
#Monti
http://t.co/OiZ0XU4Q

Ragazza
cn
le
converse
tt
paillettate
ROSA
,
ha
chiamato
Olivia
Newton
John
dagli
da
gli
anni
'
80
.
Ha
detto
ke
rivuole
indietro
le
sue
scarpe
,
grazie
.

Monti
:
Non
posso
chiedere
altri
sacrifici
agli
a
gli
italiani
:
Il
Premier
Mario
Monti
a
Die
Welf
:
«
Senza
un
segnale
da
...
http://t.co/quIwRW32

#FF
@danffi
:
l'
aumento
della
di
la
tassa
SOLO
sul
su
il
tabacco
trinciato
è
la
prova
che
il
governo
#Monti
si
accanisce
volontariamente
solo
sui
su
i
+
poveri

RT
@hazmyflower
:
Che
poi
a
me
non
da
fastidio
in
se
che
parlino
dei
di
i
one
direction
.
Ma
che
prima
gli
buttano
merda
e
poi
li
invitano
sfrutta…

Neanche
gianni
letta
nel
in
il
governo
monti
....
e
Berlusconi
chiede
al
a
il
nuovo
premier
di
nn
toccare
le
sue
televisioni
.
La
paura
fa
90
!

#Santoro
#ServizioPubblico
Si
parlerà
dell'
di
l'
insediamento
del
di
il
governo
#Monti
e
del
di
il
ruolo
delle
di
le
#banche
nella
in
la
crisi
http://t.co/tr0VNuqe

Lai
#Pd
:
“
Sul
Su
il
#Pps
,
#Cappellacci
come
in
una
telenovela
di
serie
B
“
-
Sardiniapost.it
http://t.co/VAWOOnzTSL

Crolla
la
fiducia
dei
di
i
pugliesi
in
#Vendola
.
Nichi
vuole
scappare
dalla
da
la
Puglia
,
ecco
perché
non
gli
scende
il
Governo
Monti
fino
al
a
il
2013
.

@beppesevergnini
quando
penso
al
a
il
governo
Monti
mi
viene
in
mente
Longanesi
e
il
suo
Ci
salveranno
le
vecchie
zie
è
il
caso
di
rileggerlo
rilegger
lo
?

Il
governo
Monti
alle
a
le
prime
prove
oggi
il
premier
in
Senato
per
la
fiducia
:
Dopo
il
giuramento
di
ieri
al
a
il
Quiri...
http://t.co/O7wkmKlB

Secondo
i
sondaggi
il
65
%
degli
di
gli
italiani
hanno
piena
fiducia
nel
in
il
governo
Monti
e
auspicano
di
uscire
dalla
da
la
crisi
...
http://t.co/28TcO90V

VIDEO
HD
Mario
#Monti
e
la
#Bocconi
.
Ritratto
della
di
la
#Università
delle
di
le
eccellenze
http://t.co/5yKXtaRC
via
@youtube
#oramonti
#economia

TT
ITALIA
04:48
1
.
#cinemaInChiesa
2
.
#serviziopubblico
3
.
#Grillo
4
.
Trota
5
.
Levon
Helm
6
.
Damon
and
Elena
7
.
Prince
Of
Persia
8
.
Lega

IlRestoDelCarlino.it
:
Un
'
figlio
di
Rimini
'
tra
i
ministri
del
di
il
governo
Monti
:
Andrea
Riccardi
,
nom...
http://t.co/wxXAxXE3
#news
#rimini

RENAULT
Kangoo
1.2
cat
Express
1.900
€
198000
km
http://t.co/wjvIhL7S
#vendita
#auto
#milano

RT
@tuttonapoli
:
L'
arroganza
di
Mazzarri
:
“
Gioco
dell'
di
l'
Inter
diverso
dal
da
il
Napoli
?
Quello
che
stanno
facendo
ora
è
merito
mio
“
http://t.co/2aZ
…

@zdizoro
t'
appassionerà
sapè
che
nel
in
il
prossimo
governo
#Monti
ce
potrebbe
rimanè
MaryStar
Gelmini
,
come
n'
incrostazione
.

#Grillo
difensore
dei
di
i
leghisti
non
si
puo'
sentire
,
all'
a
l'
opposizione
della
di
la
demoplutocrazia
e
del
di
il
S.I.M
#serviziopubblico
@danpertici

@SkyTg24
per
me
è
un
segnale
forte
,
peró
spero
che
alle
a
le
parole
seguano
i
fatti
!
Il
governo
#Monti
inizia
col
con
il
piede
giusto
!
#ditelavostra

Dalle
Da
le
11
filo
diretto
con
ascoltatori
e
ascoltatrici
sulla
su
la
#manovra
del
di
il
governo
#Monti
.
Ascolta
su
http://t.co/jFFlgr5q
*
tel
06491750

La
fase
due
del
di
il
governo
Monti
è
cominciata
,
e
se
la
ricetta
per
uscire
dalla
da
la
crisi
fosse
green
?
http://t.co/d5R1l0jG
#fase
due

Mario
Monti
conferma
Manlio
Strano
segretario
generale
:
ROMA
,
2
DIC
–
Il
Presidente
del
di
il
Consiglio
Mario
Monti
,
d...
http://t.co/bs3SLQsJ

@cherrybomb___
siccome
a
lucca
è
una
corsa
all'
a
l'
oro
,
faccio
meglio
ad
andare
allo
a
lo
stand
kpop
prima
o
andare
a
cercare
tipo
qualcosa
di
snk
?

Governo
Monti
:
ipotesi
#Passera
allo
a
lo
Sviluppo
.
Candidatura
spontanea
della
di
la
Minetti
.

...
la
miglior
sintesi
sulla
su
la
manovra
del
di
il
governo
Monti
è
racchiusa
nella
in
la
sequenza
di
questo
film
...
http://t.co/VwVTljhd
via
@youtube

RT
@PillerGumpel
:
.
@lameduck1960
ztate
prentento
in
ciro
kvelli
kol
kol
kol
raffrettoren
kvanto
foi
ziete
kon
piete
nella
in
la
fossen

@ArianaSLavina
Volevo
scrivere
qualcosa
d'
intelligente
.
Ti
twitto
così
posso
illudermi
illuder
mi
del
di
il
fatto
che
sai
che
esisto
/
bastava
dire
ciao
:)

È
in
corso
il
voto
di
fiducia
al
a
il
governo
Monti
alla
a
la
Camera
dei
di
i
Deputati
.
Seguiranno
aggiornamenti
sui
su
i
risultati
.

Se
il
governo
Monti
non
piace
alla
a
la
Lega
,
a
Di
Pietro
e
a
Sallusti
allora
significa
che
è
il
governo
che
serve
al
a
il
Paese
.
Good

Goldman
Sachs
innesca
la
crisi
e
poi
piazza
Mario
Monti
a
risolverla
risolver
la
http://t.co/MMf3pnqI

#lista
,
lunga
vita
al
a
il
governo
Monti
,
che
ci
traghetti
fuori
dalla
da
la
crisi
con
tutta
banca
intesa
al
a
il
MSE
,
ma
un
sottosegretario
under
50
no
?

#Grillo
l'
elogio
alla
a
la
follia
,
#Sallusti
l'
elogio
al
a
il
padrone
,
#Renzi
l'
elogio
alla
a
la
hoha
hola

Giorgio
Napolitano
:
Il
Presidente
della
di
la
Repubblica
ha
nominato
Mario
Monti
senatore
a
vita
ai
a
i
sensi
dell'
di
l'
articol...
http://t.co/8UiXVGsO

mamma
red
mi
ha
messo
6
+
e
io
sto
saltellando
!
(
ok
,
forse
é
per
il
caffé
e
la
pappa
reale
insieme
)

“
@lockedbirds
sto
riascoltando
i
tokio
hotel
e
fangirlo
e
ricordo
i
bei
tempi
“
same
here

Alessandra
che
dietro
le
quinte
vede
la
registrazione
della
di
la
puntata
di
Francesco
Monte
e
al
a
il
momento
della
di
la
scelta
...
http://t.co/XPMT2qPw

La
CGIL
deve
proclamare
lo
sciopero
generale
.
La
manovra
del
di
il
governo
Monti
è
innacetabile
,
pagano
sempre
i
più
deboli
.
Basta
!
1

Rassegnarsi
Rassegnar
si
all'
a
l'
evidenza
.
Gli
ascoltatori
di
Radio
Padania
molto
soddisfatti
del
di
il
governo
Monti
.
http://t.co/IQ3oVqHD

LA
HIT
DEL
DI
IL
2012
E'
FUORI
.
NACHO
,
PAKOS
E
UNCLE
J
COME
MARIO
MONTI
SE
NON
LA
POMPI
NON
APPREZZI
IL
BELLO
http://t.co/K2IZBUh7

@Pia_queugosto
Claro
com
quem
?
e
quanto
?

22/4/2011
:
-
Fu
leakkato
il
Remix
di
"
TTWE
"
con
Niki
Minaj
e
Ke$ha
-
"
S&M
REMIX
"
sale
alla
a
la
#1
della
di
la
Billboard
hot
...
http://t.co/KlDLuqeM

@ildireeilfare
tutto
molto
soft
e
british
me
confronti
del
di
il
governo
Monti
.
Ma
le
sabbie
della
di
la
politica
attuale
sono
insidiose
.
Brutto
momento

#Grillo
con
la
boiata
sull'
su
l'
uscita
dall'
da
l'
euro
ha
dimostrato
tutti
i
suoi
limiti
.
E
la
sua
strategia
elettorale
.
#elezioni

@GBA_mediamondo
:
Il
frame
del
di
il
governo
#Monti
e
l'
eredità
del
di
il
berlusconismo
http://t.co/RPzrySYM
Bel
pezzo
anche
da
discutere
,
ma
lucido
.

#Grillo
fà
propio
paura
alla
a
la
#sinistra
,
il
buon
#bersani
pensi
a
governare
e
stia
sui
su
i
banchi
di
#Montecitorio

Si
fa
fatica
a
vedere
anche
un
solo
segnale
di
equità
nella
in
la
manovra
del
di
il
governo
Monti
.
Tutto
grava
sulle
su
le
spalle
...
http://t.co/sVuimqsq
"

#Grillo
catalizza
l'
attenzione
della
di
la
gente
perché
ha
capito
ciò
ke
la
gente
vuol
sentirsi
sentir
si
dire
,
ma
questa
è
pura
demagogia
non
è
politica

Il
giudizio
degli
di
gli
italiani
sulla
su
la
manovra
del
di
il
governo
Monti
http://t.co/zqqOVuRf
Ecco
cosa
pensano
gli
Italiani
sulla
su
la
nuova
manovra
di
Monti

Cmq
Mr
Mario
Monti
non
e'
la
soluzione
del
di
il
problema
ma
parte
di
esso
!

e
bravo
Lehener
che
in
Aula
alla
a
la
Camera
ha
detto
a
mario
MONTI
:
FATE
PAGARE
L'
ICI
ALLA
A
LA
CHIESA
!

Geniale
Hashtag
in
vista
del
di
il
possibile
incarico
di
Premier
per
Mario
Monti
#FullMonti
ed
è
tra
i
TT
!

Dall'
Da
l'
antipolitica
#Grillo
si
e'
passati
alla
a
la
politica
con
miss
padania
!
Ma
quello
del
di
il
pd
e'
sveglio
o
soffre
di
jet-lag
?

Il
fatto
che
#Obama
chiami
#Napolitano
per
fare
il
punto
sul
su
il
governo
#Monti
la
dice
lunga
sulla
su
la
paura
del
di
il
mondo
che
l'
Italia
crolli

governo
Monti
,
scenario
molto
simile
al
a
il
governo
ribaltonesco
di
Dini
nel
in
il
'95

ho
finito
la
tavola
in
15
minuti
,
kiss
my
ass
.

@sandroruotolo
Il
consigliere
dell'
di
l'
UDC
e
tutto
il
PDL
fanno
il
loro
mestiere
.
La
novità
è
l'
appoggio
del
di
il
PD
in
sintonia
col
con
il
governo
Monti

Mario
Monti
e
la
Fiat
.
Il
volantino
dello
di
lo
slai
Cobas
http://t.co/QSObYkmi

Le
difficoltà
del
di
il
governo
Monti
a
href
=
http://t.co/mjg9A9Do
/a
<

Nel
In
il
2012
la
riforma
del
di
il
lavoro
sarà
uno
dei
di
i
punti
principali
del
di
il
professor
Monti
:
La
riforma
del
di
il
mondo
del
di
il
lavor...
http://t.co/ho7ISWby

Sondaggio
del
di
il
Messaggero.it
:
l'
80
%
dei
di
i
lettori
dice
sì
al
a
il
governo
Monti
http://t.co/Y3FJVKMY

La
tanto
pretesa
equità
richiesta
al
a
il
governo
Monti
non
c'
è
sono
tutti
scontenti
tranne
Piercasinando
e
Emmona

TT
ITALIA
22:48
1
.
#Grillo
2
.
#serviziopubblico
3
.
#piazzapulita
4
.
Prince
Of
Persia
5
.
Franca
Rame
6
.
Nero
Wolfe
7
.
Partito
della
di
la
Nazione

#Italia
dice
addio
alla
a
la
#Ducati
..
passa
alla
a
la
casa
tesesca
#Audi

Pietro
Ichino
|
I
MIEI
VOTI
SULLA
SU
LA
MANOVRA
DEL
DI
IL
GOVERNO
MONTI
http://t.co/dxnuWyab

Il
prossimo
passo
del
di
il
Governo
Monti
sarà
chiedere
lo
ius
primae
noctis
e
il
primo
figlio
maschio
......

Belle
personcine
:
alle
a
le
misure
contro
l'
emergenza
.
Il
Senatur
,
su
un
possibile
esecutivo
guidato
da
Mario
Monti
,
r...
http://t.co/WUFh2pli

@MoniShantiRani
no
,
vuol
far
cadere
il
governo
monti
.
Infatti
credo
che
andremo
al
a
il
congelamento
del
di
il
cosidetto
Beauty
Contest

Governo
:
Monti
,
profondo
rispetto
per
partiti
e
Parlamento
:
Roma
,
13
nov.
(
Adnkronos
)
?
"
Mi
accingo
a
questo
com...
http://t.co/SOxqOC7g

Michel
Platini
:
Itu
Urusan
Italia
http://t.co/hbEuoZaS
#SepakBolaInfo

http://t.co/nTtsSaqa
-
ai
a
i
ragazzi
delle
di
le
estreme
periferie
romane
-
a
chi
non
ha
nulla
,
nella
in
la
vita
-
http://t.co/aP0jCgif
-

Mmm
...
Mi
sa
che
alla
a
la
fine
#Grillo
sia
proprio
tutta
fuffa
.

MARIO
#MONTI
.
I
#SINDACATI
BENE
HANNO
FATTO
A
MANDARLO
MANDAR
LO
AL
A
IL
#DIAVOLO
.
#GOVERNO
CONTRO
GLI
ITALIATIANI
http://t.co/B2YjDAzi
via
@PontifexRoma

POLITICA
.
#Grillo
e
il
Movimento
5
Stelle
all'
a
l'
arrembaggio
dei
di
i
voti
leghisti
?
Quanto
all'
a
l'
aridità
umana
,
il
Beppe
ci
sta
,
spiace
per
i
candidati

Previsione
di
Tremonti
:
per
il
2012
PIL
in
calo
del
di
il
3
%
.
Anche
lui
è
convinto
convinto
che
il
Governo
Monti
riuscirà
a
fare
meglio
del
di
il
suo

@justinbieber
Bieber
,
ho
trovato
un
tuo
parente
sconosciuto
si
chiama
'
Willy
Wonka
'
anche
lui
ama
le
porte
di
vetro
come
te
.

indiscrezioni
sul
su
il
nuovo
governo
:
Monti
,
Burgnich
,
Facchetti
,
Pisolo
,
Brontolo
,
Topo
Gigio
e
quello
coi
con
i
baffi
dei
di
i
Ricchi
e
Poveri
.
#laresadeiconti

GENTE
CHE
PARLA
MALE
DEI
DI
I
@onedirection
...
FATEVI
FATE
VI
UNA
VITA
PRIMA
CHE
VE
LA
DISTRUGGA
IO
U.U

Il
ricorso
al
a
il
senatore
Mario
Monti
è
l'
ennesima
manifestazione
della
di
la
loro
incapacità
.
(
Maria
Vittoria
Pittamiglio
)
http://t.co/eNUSbM8l

La
maggioranaza
del
di
il
Governo
Monti
la
voterebbe
il
55
%
degli
di
gli
elettori
:
Generazione
Italia
http://t.co/vhw5OVy0

certo
che
nel
in
il
governo
Monti
entreranno
Profumo
e
Passera
a
Mr.
B.
verrà
un
attacco
di
bile
da
record
:
il
suo
sogno
realizzato
da
altri
...

@GioPanariello
ciao
giorgione
!
ieri
ho
iniziato
un
corso
di
cabaret
a
teatro
..
stradivertito
..
speriam
bene
!!
consigli
??
:D

La
materia
prende
vita
nelle
in
le
sculture
di
Ivo
Gensini
al
a
il
Palazzo
il
Monte
:
L'
esposizione
comprende
37
opere
es...
http://t.co/RfPplZti

Il
capogruppo
alla
a
la
Camera
di
un
partito
di
maggioranza
che
lancia
la
"
guerrilla
"
sul
su
il
governo
.
Ma
che
Paese
è
questo
?
#italia2013

Dal
Da
il
disastro
della
di
la
nuova
Alitalia
al
a
il
governo
Monti
:
come
agiscono
i
Capitani
coraggiosi
|
tiscali
.
spettacoli
http://t.co/3kluviD1

Ma
vietare
i
botti
a
#Capodanno
fa
parte
della
di
la
#fase2
del
di
il
Governo
#Monti
?
Non
ditemi
dite
mi
che
e'
per
evitare
di
pagare
gli
straordinari
ai
a
i
PS
?
:)

Mario
Monti
non
è
il
mio
Presidente
del
di
il
Consiglio
visto
ke
nn
l'
ho
scelto
io
ma
lo
stesso
Governo
..
Vergogna
!

BRAVO
Monti
!
RT
@pandemia
La
classe
e
l'
ironia
di
Mario
Monti
nel
in
il
rispondere
sulla
su
la
presunta
festa
dell'
di
l'
ultimo
dell'
di
l'
anno
http://t.co/le9140gi

Mario
#Monti
Da
Goldman
Sachs
ad
Aspen
Institute
passando
per
la
Trilateral
http://t.co/yzjH9N0c
Nazisti
&
Massoni
esultano
.

Grande
attenzione
dell'
di
l'
opinione
pubblica
internazionale
all'
a
l'
investitura
del
di
il
governo
Monti
:
è
possibile
essere
al
a
il
contempo
italiani
e
sobri
!

@StefanoDeBiase1
Grazie
x
il
follower
.
Per
info
e
prenotazione
della
di
la
#donazionesangue
telefona
0574-23793
o
lascia
un
messaggio

non
so
chi
sei
delle
di
le
due
:)
—
L'
ho
scritto
nella
in
la
bio
:)
sono
quella
a
sinistra
comunque
;)
http://t.co/2XPFP707mr

“
@django162_
:
@RosaSelina
solo
un
dm
la
pregooo
...
se
nn
le
piaccio
mi
def
ok
?
😜😂
”
vita
mia

arriverà
anche
la
foto
con
peter
e
jenna
insieme
non
preoccupatevi
preoccupate
vi
riserviamo
i
tweet
per
quando
sarà
il
momento
perché
ce
ne
sarà
bisogno

A1
Roma
-
Napoli
nebbia
a
banchi
tra
Colleferro
(
Km
.
592,5
)
e
Anagni
-
Fiuggi
(
Km
.
603,5
)
dalle
da
le
06:14
del
di
il
01
mar
2015
http://t.co/BpX2e4LfaR

@MatteoSciascia
@matteomarani
nei
in
i
primi
45'
era
cosi
...
Poi
vabbe
che
fa
due
gol
,
ma
è
solo
dannoso
per
la
roma
,
un
bene
per
la
Juve

Nickelodeon
Kids
'
Choice
Awards
:
tutti
i
premi
dei
di
i
One
Direction
negli
in
gli
anni
http://t.co/gRnYaY4QNd
via
@team_world

@Raindog254
sbraitava
e
capisco
che
si
tratta
della
di
la
Persona
che
ha
vinto
l'
ultimo
Sanremo
.
TI
RENDI
CONTO
?
Xchè
èStataPremiataUna
"
cosa
"
cosi
!?

Dear
mrs
@gretamenchi
💖
Potresti
seguirmi
seguir
mi
?
💎
Ti
voglio
bene
🌸
x9

Che
bisogno
c'
è
delle
di
le
riforme
di
Renzi
?
Perché
non
ascoltare
Grillo
,
Salvini
,
Brunetta
,
Vendola
?
In
Italia
va
tutto
così
bene
.............

L'
ex
presidente
della
di
la
Repubblica
Centrafricana
Francois
Bozize
,
ora
in
esilio
,
ritornerà
nel
in
il
paese
per
le
elezioni
…
http://t.co/TFQSktjCEV

Niente
mi
commuove
maggiormente
dell'
di
l'
essere
capito
.
Lo
preferisco
immensamente
all'
a
l'
essere
immaginato
,
anche
sotto
la
forma
più
seducente
P.V

Io
mi
lamento
della
di
la
gente
che
scrive
ancora
"
freddy
mercury
"
ma
anche
quella
che
scrive
"
jhonny
cash
"
non
scherza

Ancora
anziani
truffati
a
Guidonia
Montecelio
,
attenzione
a
sedicenti
"
avvocati
"
dell'
di
l'
assicurazione
http://t.co/vAI0UL58dz

#Cellulari
e
smartphone
#10
:
Sony
Xperia
Z3
Plus
E6553
Smartphone
,
Nero
[
Italia
]
http://t.co/q0n8XCWRPa
http://t.co/gdyfYWSCuU

#notizie
Piovono
dollari
su
Blatter
:
l'ultima
contestazione
all'
a
l'
ex
padrone
della
di
la
Fifa
:
Volano
le
banconote
sul
su
il
...
http://t.co/dFRek6rMQT

@iNebux
taci
va
…
quasi
quasi
vado
a
fare
un
giretto
dal
da
il
mio
amicone
interiorizzatore
,
chissà
come
sta
?!

Era
per
i
tuoi
occhi
all'
a
l'
ufficio
degli
di
gli
oggetti
smarriti
,
fare
l'
amore
nei
in
i
container
e
non
poterti
poter
ti
raggiungere
perchè
ci
sono

Toni
,
Cris
e
il
regista
-
Scarica
l'
App
e
Vinci
il
Set
della
di
la
3a
Serie
!
@BraccialettiRos
http://t.co/BLVpo0i2Yj

@clarialonso_
que
buenooo
italia
te
ama
e
siamo
felici
che
ti
piace
l'
italia
♥♥♡
te
quierooo

Va
bene
,
va
bene
,
guardate
Sanremo
...
Tanto
fra
qualche
giorno
esce
il
primo
video
estratto
dal
da
il
live
dei
di
i
Just
for
Fun
:D
—
su
di
giri

@MarroneEmma
amore
miooo
quanto
sei
forte
!
❤️
mi
hai
fatto
ridere
tantissimo
!
Sei
la
migliore
giuro
!
Ti
amo
cu
tuttu
lu
core
!
✨🙈💕

e
in
una
cosa
ci
somigliano
:
non
sappiamo
dire
di
no
alle
a
le
persone
,
potremmo
fare
di
tutto
pur
di
accontentarle
accontentar
le
e
non
deluderle
deluder
le

Credo
in
un
Padre
superiore
Credo
nel
in
il
Bene
e
nel
in
il
Male
Credo
alle
a
le
prime
sensazioniE
nn
temo
nulla
E
nessuno
Ricorda
.
http://t.co/uHeGlOu5bL

@KyriakosJabo
confermo
!
Tutti
a
dirmi
dir
mi
"
ti
voglio
bene
"
e
nessuno
che
me...
Vabbè
...
😂😂😂
@PiccoloPegaso
@filecc

"
@boobear99_
🍃🌸
cita
e
rispondi
della
di
la
Cher
🌸🍃
Quale
youtubers
segui
?
"
Cleo
,
jalissa
,
sofia
,
Muriel
,
de
Carli
e
favij

Ho
aggiunto
un
video
a
una
playlist
di
@YouTube
:
http://t.co/BCVnXruvKu
ROMA
PRESENTAZIONE
LIBRO
SVIMEZ
SULL'
SU
L'
ECONOMIA
DEL
DI
IL

@Benji_Mascolo
Hey
amore
mio
❤
Come
stai
?
Spero
bene
!
Ho
tanto
bisogno
del
di
il
tuo
follow
,
mi
potresti
seguire
?
Ti
amo
tanto
budí
💟
x
1.684

@GiancarlGarozzo
spero
prenda
provvedimenti
circa
le
ingerenze
mafiose
sulla
su
la
gestione
della
di
la
res
pubblica
siracusana
DENUNCIATE
IN
DIRETTA

1
Doppia
in
affitto
,
a
ragazzi
e
ragazze
[
Flickr
]
-
alexeidos
posted
a
photo
:
via
Annunci
Gromia
per
Milano
ift.tt...
http://t.co/gC7M9btnoc

Non
può
succedere
nulla
che
subito
"
si
stnn
sfscn
!!
ommaigoddi
"
,
mi
fate
ridere
.
Non
possono
avere
dei
problemi
anche
loro
?

Dal
Da
il
prossimo
anno
Audi
non
sarà
più
uno
sponsor
del
di
il
Milan
il
testimone
passerà
alla
a
la
Piaggio
...
e
via
con
gli
Apetti
!!

Google
ora
fa
concorrenza
anche
alle
a
le
compagnie
telefoniche
,
col
con
il
progetto
Google
“
Fi
”
:
http://t.co/b2Ly0P2jtS
http://t.co/323qyReAUN

Anche
Jovetic
saluta
Mateo
.
Anche
a
Shaq
erano
molto
legati
😅😅
https://t.co/nu23cTlYBK

Renzi
a
Pompei
,
i
video
delle
di
le
contestazioni
-
di
Simona
D'
Albora
Non
sono
mancate
le
contestazioni
alla
a
la
visita
...
http://t.co/ZGLNhEs75s

Raduno
alla
a
la
caserma
Galliano
e
commemorazione
della
di
la
Grande
Guerra
:
Lo
scorso
anno
,
su
iniziativa
di
alcuni
soci
...
http://t.co/GWIjwOlUGN

E'
morto
a
Pietrasanta
lo
scrittore
Manlio
Cancogni
:
Aveva
99
anni
,
in
lutto
il
mondo
della
di
la
cultura
.
Con
i
su...
http://t.co/otgK99eVrc

@GliIntoccabili
@nonleggerlo
Ma
Ferrero
?
il
compagno
Ferrero
?
ma
il
suo
partito
esiste
ancora
?
allora
stiamo
proprio
frecati
!!!

@Benji_Mascolo
Benji
,
Fede
😌
vi
ho
fatto
queste
bellissime
foto
🙊😂
merito
il
vostro
follow
su
🙏🏼
@fedefederossi
x85
http://t.co/hKEtlzUoOC

"
non
sono
stati
pubblicati
perché
c’
erano
cose
più
importanti
da
fare
”
(
@Palazzo_Chigi
ha
c.ca
4mila
dipendenti
e
budget
da
3mld
)
#editing

Cris
e
Rocco
-
Scarica
l'
App
e
Vinci
il
Set
della
di
la
3a
Serie
!
@BraccialettiRos
http://t.co/CTAGCF37J2

@liamisntreal
Ti
prego
,
mi
fai
una
chat
con
Michael
C
?
Non
ti
chiedo
nient'
altro
,
dopo
ti
lascerò
stare
per
sempre
.
Posso
affidarmi
affidar
mi
solo
a
te

@elenabtr1d
Ciao
!
Mia
sorella
ha
un
canale
YouTube
che
si
chiama
corinnelife97
,
potresti
visitarlo
visitar
lo
e
iscriverti
iscriver
ti
se
ti
piace
?
Grazie
💚

Vuoi
trascorrere
una
serata
elegante
e
raffinata
in
compagnia
,
abbandonandoti
abbandonando
ti
ai
a
i
piaceri
della
di
la
buona
cucina
...
http://t.co/fxOaUoBTdv

C'
è
ancora
qualcuno
?
#Rt
seguimi
segui
mi
e
ti
seguo
.
Non
so
cosa
fare
e
non
sto
nemmeno
bene
c.c
shit

Ma
che
Lega
e
PD
o
forza
Italia
!
Qui
cé
in
un
comune
il
partito
du
PILU
che
mette
d'
accordo
tutti
!
#qualunquemente
http://t.co/HpOUUR10YF

Scene
da
BraccialettiLive
-
Scarica
l'
App
e
Vinci
il
Set
della
di
la
3a
Serie
!
@BraccialettiRos
http://t.co/ZOFQuaon3l

io
forse
riuscirò
a
vedere
i
miei
idoli
da
lontano
,
e
il
resto
del
di
il
mondo
li
incontra
pure
per
strada
.
what
's
wrong
with
me
?

Comunque
ieri
sera
è
stato
bello
aw
Gio
era
stracucciolino

La
«
buona
fede
»
del
di
il
Professor
#Monti
*
|
Global
Project
http://t.co/TAgX6wcG
#soncazzinostri
#berlusconi
#addio
#mapoi
?

@SantoTomo
AHAHAHAHA
!
Della
Di
la
serie
uccidetevi
uccidete
vi
,
ma
intanto
io
sono
una
figa
!

complimenti
al
a
il
coraggio
del
di
il
governo
Monti
sui
su
i
taxi
.
a
'
sto
punto
erano
meglio
le
pecore
del
di
il
PDL
.
un
paese
ricattato
da
4
bifolchi
.

ma
davvero
darren
ha
dedicato
a
mia
'
any
of
those
things
?
ditemi
dite
mi
di
no
........................................................

#Grillo
sottolinea
la
distanza
dei
di
i
palazzi
della
di
la
politica
dalla
da
la
vita
reale
.
#Ultimaparola

Mi
sto
commuovendo
a
guardare
How
I
Met
Your
Mother

Milano
,
giovani
Pdl
protestano
davanti
sede
della
di
la
Goldman
Sachs
contro
governo
Monti
#oramonti

Governo
monti
arrogante
e
delle
di
le
banche
massonico
ma
il
popolo
li
punirà
presto
siamo
solo
all'
a
l'
inizio
della
di
la
rivoluzione

Beh
certo
,
tenere
il
cellulare
al
a
il
bar
in
tasca
vicino
alle
a
le
parti
intime
ci
salverà
tutti
dal
da
il
tumore
.
Udine
cell
free
http://t.co/BnQ6lJ65

Photo
:
sechiudogliocchinoncisei
:
Ma
com’
è
che
sei
sempre
piu’
bello
?
http://t.co/ZUX0WvSRpM

Un
risultato
sicuramente
ottenuto
dal
da
il
#governo
#Monti
e
stato
quello
di
aver
#insabbiato
i
costi
della
di
la
politica
col
con
il
battage
sull'
su
l'
evasione
!

Si
all'
a
l'
Europa
no
all'
a
l'
EuroBANCA
!
No
a
Mario
Monti
#nomonti
@CarolaLatini

Uh
,
per
la
prima
volta
dopo
secoli
Olli
Rehn
dice
qualcosa
di
positivo
sull'
su
l'
Italia
.
Dobbiamo
fare
santo
Mario
Monti
...

Sabato
alla
a
la
Camera
si
vota
il
DDL
SVILUPPO
...
poi
da
Lunedi
avremo
un
nuovo
Governo
con
Mario
Monti
Premier
.
http://t.co/LWtLS5it

Corrado
Guzzanti
sul
su
il
governo
Monti
:
Dall'
Da
l'
intervista
di
Corrado
Guzzanti
a
GQ
che
uscirà
in
edicola
il
2
febbraio
...
http://t.co/Jw1NwPmO

Le
politiche
del
di
il
governo
Monti
e
della
di
la
giunta
Cota
sono
volte
al
a
il
taglio
drastico
di
risorse
e
personale
...
http://t.co/j4nYqkRs

Il
Governo
Monti
piace
molto
ai
a
i
leghisti
,
il
sondaggio
di
Radio
Padania
scompare
dal
da
il
web
http://t.co/06BBYhM4

Se
un
#Grillo
(
verde
?!
)
sta
dalla
da
la
parte
della
di
la
#Lega
:
presi
di
mira
perche'
all'
a
l'
opposizione
...
#nocomment

scusate
ma
se
story
of
my
life
parla
di
una
ragazza
e
blabla
perchè
nel
in
il
video
ci
sono
le
foto
dei
di
i
ragazzi
da
piccoli
?
cioé
non
ha
senso

Speriamo
che
il
Governo
#Monti
inserisca
nel
in
il
provvedimento
del
di
il
5
dicembre
anche
un
bel
piano
di
#tagli
alla
a
la
spesa
pubblica

Comunque
l'
immagine
di
Mario
Monti
come
il
Saddam
Hussein
del
di
il
business
è
fantastica

Grazie
a
Sandro
Ruotolo
,
Giulia
Guazzaloca
,
Giovanni
Gozzini
e
alle
a
le
>
150
persone
che
hanno
partecipato
ai
a
i
seminari
su
televisione
in
Italia
.

Su
rai1
la
partita
dell'
di
l'
Italia
non
è
criptata
per
gli
utenti
SKY
:
il
primo
vero
effetto
del
di
il
governo
monti
?

Comizi
,
interventi
registrati
,
post
sul
su
il
suo
blog
e
videomessaggi
.
Ma
fare
una
domanda
a
#Grillo
è
possibile
o
ci
accontentiamo
del
di
il
monologo
?

c'
é
solo
una
cosa
peggiore
degli
di
gli
stipendi
d'
oro
della
di
la
politica
;
i
servizi
del
di
il
#tg5
indignato
,
come
se
ci
fossero
solo
col
con
il
governo
#monti
.

Tensione
alla
a
la
#Camera
con
la
#Lega
che
ripete
continuamente
l'
ostruzionismo
contro
il
#Governo
#Monti
.
Urla
da
stadio
:
what
Parliament
is
?

Entra
Montomoli
esce
Gentili
.
Il
gol
Amiatino
segnato
da
Sabatini

Il
primo
vero
successo
raggiunto
dal
da
il
#governo
#monti
è
che
nei
in
i
talkshow
si
comincia
a
parlare
di
cose
serie
http://t.co/4J9cHDUG
#buongiorno

Fattorini/Prc
Città
la
Pieve
:
Siamo
contro
la
manovra
del
di
il
governo
Monti
|
umbrialeft.it
http://t.co/03lwKTqU

Marcegaglia
,
Camusso
e
il
rapporto
con
il
governo
Monti
:
La
pasdaran
Emma
,
la
gelida
Susanna
Europa
http://t.co/qyBZmsXu

sembra
che
la
fiducia
degli
di
gli
italiani
nel
in
il
Governo
Monti
sia
inversamente
proporzionale
alle
a
le
temperature
.

Governo
Monti
,
se
il
cambio
di
passo
arriva
anche
sul
su
il
Web
Tg24
Sky.it
.
Guardalo
Guarda
lo
su
:
http://t.co/fVVUBQGD

@noemib90
:
Stasera
Mario
Monti
alle
a
le
20
tg5
..
per
la
prima
voltaa
!

Incoerenza
del
di
il
PDL
:
Passera
(
competente
)
nel
in
il
governo
Monti
e
si
grida
allo
a
lo
scandalo
,
passera
(
incompetente
)
nel
in
il
governo
B.
e
tutto
va
bene
.

Profumo
:
Mi
dimetto
dal
da
il
Cnr
per
rispetto
della
di
la
legge
,
delle
di
le
Istituzioni
,
del
di
il
Governo
e
dello
di
lo
stesso
Ente
.
#governo
#Monti

Mario
Monti
ha
spiegato
il
motivo
del
di
il
ritardo
nel
in
il
presentare
la
lista
dei
di
i
#ministri
http://t.co/Y2BVPkGx

La
decisione
del
di
il
Cav
di
appoggiare
un
eventuale
governo
#Monti
non
è
dettato
da
ragionamenti
politici
,
ma
dai
da
i
risultati
in
borsa
di
Mediaset

Il
peccato
dell'
di
l'
antipolitica
di
#Grillo
sta
nel
in
il
tentativo
di
sfruttare
la
protesta
della
di
la
gente
per
conseguire
obiettivi
e
interessi
privati
.

se
avete
unidea
vi
aiuterò
a
realizzarla
realizzar
la
,
scrivete
e
seguitemi
seguite
mi
anche
su
facebook
:
Chiccami
e
i
colori
delle
di
le
farfalle
http://t.co/IJgeG4RdX6

Buongiorno
a
tutti
!
Nuova
foto
di
Kristen
in
giro
per
LA
con
CJ
e
Suzie
!
Nana
<3
-
Jules
http://t.co/o1oHm5GaOt

@matteorenzi
nel
in
il
quadrante
della
di
la
ruota
della
di
la
fortuna
ci
sarà
pure
una
casella
"
fermo
un
giro
"
e
"
perdi
tutto
"
,
i
lupetti
crescono
tu
no

Ieri
a
Sempione
Vlada
mi
ha
gridato
"
STOP
!!!!
"
e
io
come
una
cogliona
ho
iniziato
a
cantare
"
Freeze
"
dei
di
i
Block
B
.
Kpop
cosa
mi
hai
fatto
.

Movimento
Eticonomico
02/09/2015
Ore
20:30
-
CERVETERI
(
RM
)
Agriturismo
Borgo
Dell'
Aschetto
-
Via
Fosso
Della
Cerqueta
,
30

@tvdellosport
scusate
ma
vedendo
il
vostro
sito
tmw
ho
notato
che
eto'o
andrà
quasi
sicuramente
alla
a
la
samp
.
vorrei
sapere
quanto
c'
e
di
vero
?

Vaffanculo
-
Marco
Masini
-
Music
Video
-
VEVO
http://t.co/LPMiNMotJW
Dedico
questa
cansone
a
i
amici
miei
della
di
la
squadra
Milan
B
lega
QRSL

@GScarcina
Ciao
☺️
se
hai
posti
liberi
nel
in
il
gruppo
sull'
su
l'
app
di
braccialetti
Rossi
puoi
aggiungermi
aggiunger
mi
?
Myriam
baldi
,
posizione
14
Grazie
❤️

Come
non
condividere
quanto
sostenuto
da
#Grillo
sul
su
il
blog
.
La
dilapidazione
del
di
il
denaro
pubblico
,
scandalo
della
di
la
politica
.
http://t.co/Y80RhwBD

RT
@SabatiniSky24
:
È
morto
il
giornalista
#FrancoRossi
.
Negli
In
gli
anni
80
e
90
è
stato
numero
uno
del
di
il
#calciomercato
.
RIP
http://t.co/4WibtMeVKY

Cgil
,
Cisl
,
Uil
Ancona
,
braccio
di
ferro
contro
la
manovra
del
di
il
governo
Monti
http://t.co/fnnDhOEx

#serviziopubblico
l'
antipolitica
e
il
populismo
di
#Grillo
sono
figli
della
di
la
cattiva
politica
dei
di
i
partiti
,
non
meravigliamoci
meravigliamo
ci
!!!!!

Governo
#Monti
:
Anno
nuovo
,
#comunicazione
nuova
.
Al
A
il
lavoro
su
faqs
,
risposte
dirette
ai
a
i
cittadini
e
,
finalmente
,
profilo
#twitter
ufficiale

Leggete
'
Goldman
Sachs
innesca
la
crisi
e
poi
piazza
Mario
Monti
a
risolverla
risolver
la
video
'
di
Claudio
Messora
@Cadoinpiedi
http://t.co/C2qq3OLx

Immagino
che
#Grillo
voglia
farci
far
ci
uscire
dall'
da
l'
Euro
per
tornare
alla
a
la
Dracma
.

Toh
,
il
governo
#Monti
piace
più
della
di
la
scorsa
settimana
.
Che
è
successo
?
La
Bilderberg
ha
truccato
i
sondaggi
?
http://t.co/oVihZWwP

Governo
Monti
a
lezione
dai
da
i
precari
.
Domani
flash
mob
a
piazza
del
di
il
Gesù
#Napoli
http://t.co/nXeiW5MS

Cosa
lega
Mario
Monti
al
a
il
referendum
in
Grecia
sulle
su
le
misure
di
austerità
imposte
dall'
da
l'
Ue
?
Proverò
a
spiegarlo
spiegar
lo
su
http://t.co/UXFdsdot

Cicchitto
:
Monti
riconosca
i
meriti
del
di
il
governo
Berlusconi
:
«
Siamo
molto
contenti
che
il
governo
Monti
abbia
dat...
http://t.co/c9XjIfOc

#Grillo
dice
che
#Napolitano
è
il
presidente
dei
di
i
partiti
.
Ha
ragione
?
Anche
il
capo
dello
di
lo
Stato
ha
delle
di
le
colpe
?

stamattina
ho
visto
il
video
di
give
you
heart
a
break
,
dio
non
ho
parole
.
è
semplicemente
stupendo
amore
mio
@ddlovato
STUPENDO
,
tu
lo
sei
♥

Fa
notizia
Mario
Monti
,
sorpreso
alla
a
la
guida
senza
cintura
e
al
a
il
cellulare
.
Così
ci
sembra
meno
grave
l'
accusa
per
camorra
all'
a
l'
on.
Cosentino

per
unire
politica
e
nerdate
,
Mario
Monti
è
quello
dei
di
i
497
milioni
di
euro
di
multa
a
Microsoft

Fenomenale
Lucia
Annunziata
:
oggi
ha
voluto
far
capire
a
Mario
Monti
che
come
direttore
del
di
il
Tg1
lei
sarebbe
molto
meglio
di
Lilliput
Gruber

Un
altro
prodigio
del
di
il
governo
Monti
:
imposta
bollo
sui
su
i
conti
correnti
,
34
euro
di
tassa
sui
su
i
conti
correnti
.
#MANOVRA
#monti
#tasse

@tnksguys
questa
sera
,
solo
in
esclusiva
per
i
twitteriani
,
gli
scleri
di
ilenia
.
HAHAHAHAAHAHHA

@CarloMarulli
In
comune
noto
anche
una
certa
visione
funesta
del
di
il
futuro
,
stile
Cormac
McCarthy
,
dal
da
il
quale
solo
#Grillo
può
salvarci
salvar
ci
,
ahinoi
!

Guardate
Mario
Monti
Channel
qui
http://t.co/WeZM4NtS
Un
avatar
simpaticissimo
del
di
il
premier
!

News
dall'
da
l'
ateneo
:
Bando
per
l'
elezione
dei
di
i
componenti
della
di
la
Giunta
del
di
il
dipartimento
di
Psicologia
:
http://t.co/DhwBScpc

Francesco
Profumo
al
a
il
Ministero
MIUR
del
di
il
governo
Monti
:
ottimo
!
Presidente
del
di
il
CNR
#francescoprofumo
#MIUR
#Monti
#cnr

Monti
credit
rating
:
AAA
.
Sono
sempre
più
impressionato
dallo
da
lo
stile
e
dalla
da
la
serietà
di
Mario
Monti
,
speriamo
che
il
mondo
si
accorga
di
lui

@Pierferdinando
Ottimo
,
puntualizzazione
doverosa
e
autorevole
xchè
viene
dall'
da
l'
UdC
poco
incline
a
tentennamenti
tattici
sul
su
il
Governo
Monti
.

Salentonotizie
,
Politica
No
al
a
il
governo
Monti
.
Si
al
a
il
Reddito
sociale
in
Puglia
http://t.co/7btuj7bA

@toocurlyhair
quello
è
il
problema
HAHAH
comunque
amo
la
tua
icon
aw

Mario
Monti
nominato
senatore
a
vita
La
mossa
del
di
il
Colle
nei
in
i
giorni
della
di
la
crisi
http://t.co/sr1MN3Qr

Ma
se
vi
dicessi
che
dopo
JC
e
KATC
voglio
scrivere
una
kurtastian
,
quanto
rapidamente
mi
mandereste
al
a
il
diavolo
?

Merkel
,
Sarkozy
,
ti
sorridono
i
#Mario
Monti
...
Merkel
,
Sarkozy
,
le
caprette
ti
fanno
ciao

#Governo
#Monti
:
Intoppi
sulla
su
la
lista
dei
di
i
ministri
.
SuperMario
e'
indeciso
su
Goldrake
all'
a
l'
Interno
e
l'
uomo
tigre
allo
a
lo
Sviluppo
economico

Ed
è
pericoloso
dare
dello
di
lo
snob
a
chiunque
scelga
la
strada
dell'
di
l'
argomentazione
e
della
di
la
conoscenza
tecnica
dei
di
i
temi
.
#Grillo
#piazzapulita

RHAPSODY
OF
FIRE
:
gli
orari
della
di
la
data
di
Trezzo
(
MI
)
|
http://t.co/onatcKiP
:
http://t.co/UYo2mA3j

Ho
appena
acquistato
Cottage
table
su
Stardoll
.
Dai
un'
occhiata
alla
a
la
mia
Suite
!
http://t.co/8p7EwEiq

#Grillo
@PiazzapulitaLA7
ma
Grillo
nn
e'quello
ke
ha
fatto
a
suo
tempo
il
condono
???

#Santoro
:
"
Perchè
nessuno
oltre
#Grillo
parla
della
di
la
crisi
delle
di
le
banche
italiane
?
All'
A
l'
estero
è
un
argomento
dibattuto
.
"

Che
poi
,
a
guardare
bene
,
l'
unica
differenza
è
che
#Grillo
è
delNord
,
e
#Cettolaqualunque
del
di
il
sud
.
Suv
compresi
.

Tra
le
decisioni
del
di
il
governo
Monti
aumento
della
di
la
benzina
di
10cent
e
del
di
il
gasolio
di
12
cent
da
gennaio
.
Siete
contenti
ITALIOTI
?

RT
@juventusfc
:
GOOOOOOOL
,
dal
da
il
dischetto
Tevez
non
sbaglia
!!!
#FiorentinaJuve
1
-
0

Ecco
,
lo
stavo
aspettando
l'
attacco
alla
a
la
stampa
.
Grande
classico
.
Del
Di
il
resto
é
un
comico
,
impara
da
Celentano
#Grillo
@nellina99
@Sissetta80

RT
@OrobicaCF
:
45°
Femminile
Villa
Valle
-
Orobica
CF
0
-
1
:
Orobica
CF
effettua
un
cambio
.
Entra
Vavassori
esce
Asperti
http://t.co/iMw0XTQM
…

Governo
Monti
:
avanti
con
il
processo
di
abolizione
delle
di
le
Province
:
//
//
//
]
a
href
=
http://t.co/he4oiPEt
/a
<

#Grillo
dovrebbe
smettere
di
fare
monologhi
e
cominciare
a
confrontarsi
confrontar
si
in
modo
da
svelare
la
vera
natura
sotto
la
pelle
dei
di
i
ns
politici

Franceschini
:
Più
risorse
da
destinare
in
busta
paga
,
priorità
ai
a
i
mini
-
redditi
–
Intervista
del
di
il
Corriere
la
Sera
http://t.co/ZJrWajR9H8

@CapaGrezza
ma
quale
impegno
,
tu
crei
la
tua
ed
io
la
mia
.
Poi
un
paio
di
giorni
guadagnamo
un
po'
di
followers
ed
alla
a
la
fine
ne
uccidiamo
una

Educato
come
al
a
il
solito
il
Senatur
.....
«
Il
governo
di
Mario
Monti
è
un
governo
infame
ha
detto
Bossi
dal
da
il
palco
...
http://t.co/Vc8y9iBX

@Alis_OneD
ahaha
per
questa
cosetta
?!?
Ahaha
anche
se
è
la
pura
verità
!
Ahah

LORENA
BIANCHETTI
FOLGORATA
DAL
DA
IL
"
SOBRIO
ED
ELEGANTE
"
MARIO
MONTI
ALL'
A
L'
ITALIA
SUL
SU
IL
2
http://t.co/xVarMJw3

cioppoo
>:)
quando
ti
chiamooo
?
—
Tra
un
po'
comincio
arte
,
appena
finisco
ti
scrivo
su
whazza
ouo
http://t.co/k2vS0YkkEr

Il
punto
di
vista
di
Benedetto
Della
Vedova
sul
su
il
futuro
del
di
il
Governo
Monti
L'
occasione
|
Libertiamo.it
:
http://t.co/ExfZpxVO
via
@AddThis

@redazioneiene
@frafacchinetti
@Secondotestomal
Mario
monti
....
Gruppo
bildenberg
.....
e
ho
detto
tutto
...
secondovoi
stiamo
male
?
Nooo

È
confortante
sapere
che
il
PD
appoggerà
il
governo
Monti
nella
in
la
realizzazione
del
di
il
programma
del
di
il
PdL
!
#portaaporta
#orabasta
#acasa

@ilaria_perini
lillii
i
need
cure
speciali
della
di
la
giuly
!
è
stata
una
pasqua
difficile
.

"
Dalla
da
la
lettera
de
#Mengoni
ai
a
i
Corinzi
...
Parola
de
#Noemi
"
.
Er
Vescovo
de
Noto
c'
ha
l'
ics
(
e
sta
)
fatto
.
Daje
http://t.co/4SB4hZuew1

Alla
A
la
ricerca
del
di
il
niruana
✋😽😂
#federaicamaggiorenne
#ellapeppa
#bellasssei
http://t.co/JREaZ3W1Pn

Eravamo
4
ladri
al
a
il
bar
.....
quando
io
dicevo
che
alla
a
la
festa
dell'
di
l'
Unità
giravano
soldi
a
nero
...
il
segretario
...
http://t.co/42TFwjHpvZ

@sunljam
le
graduatorie
per
chi
deve
partecipare
alla
a
la
vacanza
inpdap
,
poi
in
base
alla
a
la
posizione
si
sceglie
dove
andare
:)

Foto
:
I
BR
alla
a
la
Fiera
del
Levante
-
Scarica
l'
app
e
diventa
un
braccialetto
http://t.co/sbhRImFnXb
@BraccialettiRos
http://t.co/uaSLQiCIZd

Domani
sera
a
Palazzo
Chigi
incontro
informale
tra
Mario
Monti
e
parti
sociali
:
I
leader
di
Cgil
,
Cisl
,
Uil
e
Ug...
http://t.co/tIOGh5aW

Fitch
ha
fiducia
nel
in
il
governo
Monti
ed
è
sicura
del
di
il
default
della
di
la
Grecia
#ballaró

Bersani
leader
de
che
?
La
formazione
del
di
il
governo
#Monti
vede
il
Pd
ancora
sotto
scacco
della
di
la
Sel
e
Idv...

Ma
veramente
#Grillo
ha
detto
che
la
soluzione
alla
a
la
crisi
è
uscire
dall'
da
l'
Euro
??
Ma
allora
è
un
genio
dell'
di
l'
economia
!
Ah
no
un
minchione
!!

Tg3
L'
incontro
fra
Sarkozy
,
Angela
Merkel
e
Mario
Monti
ha
lasciato
sul
su
il
tappeto
praticamente
tutti
i
problemi
...
http://t.co/eFsvbm4k

Governo
#monti
il
consigliere
della
di
la
cassazione
Maria
stefania
di
tomassi
e'
il
nuovo
capo
degli
di
gli
007
del
di
il
ministro
paola
severino

Ce
la
puoi
fare
.
Fides
fidei
fidei
fidem
fides
fide
.

@DeBortoliF
Cambia
la
musica
e
stavolta
davvero
.
Il
Paese
si
muove
e
se
lo
fa
è
grazie
all'
a
l'
operato
del
di
il
governo
Monti
!

@quoquetu
sul
su
il
governo
monti
si
poteva
fare
di
meglio
e
spero
ancora
Cmq
vedere
riccardi
e
rossi
doria
li'
nn
ha
prezzo
..
#opencampidoglio

@federico_betti
@edzerbinati
io
sono
invidioso
...
quel
labbrina
li
mmmmmmh
dopo
mi
sparo
una
pippa
su
questa
foto
...

La
protesta
dei
di
i
forconi
si
estende
.
Governo
Monti
sull'
su
l'
orlo
della
di
la
crisi
.

@Rainews24
Il
governo
Monti
è
previsto
che
duri
al
a
il
massimo
,
fino
al
a
il
2013
.
Il
governo
del
di
il
centrodestra
è
finito
in
malo
modo
.

Eurozona
,
frena
a
sorpresa
l'
indice
pmi
della
di
la
crescita
economica
:
Il
pmi
flash
dell'
di
l'
Eurozona
a
ottobre
sce...
http://t.co/GGELCVXQHf
#fb

Ma
che
bravo
Gianni
Cuperlo
,
a
mo'
di
“
professoressino
“
vuole
dare
le
#lezioni
a
Matteo
Renzi
,
dimenticandosi
dimenticando
si
,...
http://t.co/YsFtOejcrJ

Ecco
ricordiamoci
ricordiamo
ci
che
prima
del
di
il
governo
#Monti
ce
ne
sono
stati
altri
che
forse
hanno
cagato
fuori
dal
da
il
vaso
.
#conferenzastampa

@xladrm
Con
i
denti
tirò
il
vibratore
fuori
dal
da
il
corpo
di
Gerard
e
lo
lasciò
cadere
sul
su
il
pavimento

@gafertekoias
ahahaha
mi
ombottivo
per
bene
xD
ma
poi
sono
stata
male
...
LOOOL

Un
ultima
riflessione
prima
di
andare
a
dormire
:
Che
fisico
#demmmerda
ha
Daniel
Radcliffe
?
Quello
si
che
era
vietato
ai
a
i
minori
!

Kim
Jong
é
morto
.
Come
nuovo
Premier
,
si
parla
insistentemente
di
Mario
Monti

Maurizio
Crozza
Ballarò
13/12/11
Ma
perchè
è
slittata
la
manovra
del
di
il
governo
Monti
?
http://t.co/OaaRw00e

@tweetpolitica
#Grillo
per
#Napolitano
è
un
demagògo
che
fa
antipolitica
.
#Napolitano
!
I
tuoi
sermoni
appartengono
alla
a
la
notte
dei
di
i
tempi
.

@MassimoBordin
hai
commenti
circa
l'
ennesimo
attacco
alla
a
la
Bonino
durante
il
passaparola
di
Fini
del
di
il
23/4/2012
sul
su
il
blog
di
#Grillo
?

RT
@aryanistic
:
praticamente
la
nostra
generazione
sarà
una
massa
di
idioti
tatuati
con
croci
,
stay
strong
sui
su
i
polsi
e
infiniti
dietro
il
c…

@il_libertario
mmm
#Grillo
(
razzista
e
omofobo
http://t.co/3gtNmOWu
)
prende
più
i
voti
dell'
di
l'
idv
che
della
di
la
lega

La
battuta
di
spirito
è
in
un
certo
senso
il
contributo
pagato
dalla
da
la
comicità
alla
a
la
sfera
dell'
di
l'
inconscio
.
Sigmund
Freud

Mario
Monti
,
un
italiano
contro
natura
?
.
(
titolo
del
di
il
premio
europeo
dell'
di
l'
anno
dato
dai
da
i
francesi
al
a
il
premier
Monti
)
Che
vogliono
dire
?!?

Lionel
Messi
Cuma
Mencetak
1
Gol
dalam
7
Pertemuan
Melawan
Klub
Italia
:
Ancaman
serius
melanda
kubu
Barcelona
me
...
http://t.co/VKSzzjhZ

De
Bortoli
a
Rai3
:
Niente
sconti
del
di
il
Corsera
al
a
il
governo
#Monti
.
Buffone

#buongiorno
regalo
di
Natale
del
di
il
governo
Monti
che
parte
col
con
il
botto
:
sconto
del
di
il
28,6
%
sull'
su
l'
Irpef
di
novembre
per
tutti
http://t.co/qgmnYziu

il
governo
#Monti
si
vanta
di
ridurre
il
debito
con
i
recuperi
dell'
di
l'
evasione
,
da
imputare
invece
alla
a
la
riduzione
della
di
la
tassazione
complessiva

Mario
Monti
,
con
el
viento
a
su
favor
en
Italia
El
Universal.mx
http://t.co/myODb8Nr
#Italia

i
nostri
partiti
a
nascondino
col
con
il
governo
Monti
;
ma
per
scoprire
i
suoi
veri
mandanti
agli
a
gli
elettori
non
serviranno
i
RIS
#manovra

#Grillo
dovrebbe
chiedere
quanti
giovani
andrebbero
a
fare
i
contadini
,
qnti
i
muratori
qnti
alle
a
le
cave
(
dato
che
è
a
Carrara
)
.
Sarebbe
inter
.

"
Lo
spread
sta
alla
a
la
crisi
dell'
di
l'
economia
come
#Grillo
sta
alla
a
la
crisi
della
di
la
politica
"
http://t.co/cUbTirwS
un
mio
articolo
per
@ilcorsaro_info

RT
@zaynssistah_
:
#xfactor
MA
SMETTETELA
SMETTETE
LA
DI
PARAGONARE
I
FREE
BOYS
A
NOMI
COME
BEATLES
E
1D
,
PER
ME
NON
SARANNO
MAI
COME
LORO
CASE
CLOSED
.

Detto
tra
noi
:
dopo
aver
visto
e
sentito
il
mago
Martone
ieri
sera
in
tv
,
tutta
'
sta
scienza
nel
in
il
governo
Monti
non
mi
pare
di
vederla
veder
la
...

Cosa
può
portare
di
nuovo
#Grillo
col
con
il
suo
movimento
nel
in
il
già
intricato
campo
della
di
la
politica
?
Servono
idee
nuove
e
proposte
valide
#noprotesta

@prfzjm
wow
!!!
Cmq
anche
io
sto
bn
:3

TT
ITALIA
05:28
1
.
#cinemaInChiesa
2
.
#serviziopubblico
3
.
#Grillo
4
.
Trota
5
.
Levon
Helm
6
.
Damon
and
Elena
7
.
Prince
Of
Persia
8
.
Lega

Lo
so
,
lo
so
ha
ritwittato
a
tutti
ma
io
sto
saltando
come
una
cogliona
per
tutta
la
casa
ahahahahah
!
<3
Liam
http://t.co/6QFD1xIb

RT
@dragonenero2013
:
@VoxNewsInfo
E'
giunto
,
da
tempo
,
il
momento
di
prenderli
prender
li
a
calci
nel
in
il
nobil
sedere

Novità
per
il
mondo
dei
di
i
Saloni
di
Bellezza
italiani
arrivano
dalla
da
la
Manovra
Finanziaria
del
di
il
governo
Monti
:
in
...
http://t.co/WMxqZh01

